﻿Log file open, 09/27/22 12:49:35
LogWindows: Failed to load 'aqProf.dll' (GetLastError=126)
LogWindows: File 'aqProf.dll' does not exist
LogProfilingDebugging: Loading WinPixEventRuntime.dll for PIX profiling (from ../../../Engine/Binaries/ThirdParty/Windows/WinPixEventRuntime/x64).
LogWindows: Failed to load 'VtuneApi.dll' (GetLastError=126)
LogWindows: File 'VtuneApi.dll' does not exist
LogWindows: Failed to load 'VtuneApi32e.dll' (GetLastError=126)
LogWindows: File 'VtuneApi32e.dll' does not exist
LogWindows: Started CrashReportClient (pid=4792)
LogConsoleResponse: Display: Failed to find resolution value strings in scalability ini. Falling back to default.
LogConsoleResponse: Display: Failed to find resolution value strings in scalability ini. Falling back to default.
LogInit: Display: Running engine for game: MyProject3
LogCore: UnrealTraceServer: Trace store launch successful
LogCsvProfiler: Display: Metadata set : platform="Windows"
LogCsvProfiler: Display: Metadata set : config="Development"
LogCsvProfiler: Display: Metadata set : buildversion="++UE5+Release-5.0-CL-20979098"
LogCsvProfiler: Display: Metadata set : engineversion="5.0.3-20979098+++UE5+Release-5.0"
LogCsvProfiler: Display: Metadata set : commandline="" "C:\Users\ROG2\OneDrive\Documents\Unreal Projects\MyProject3\MyProject3.uproject"""
LogCsvProfiler: Display: Metadata set : os="Windows 10 (21H2) [10.0.19044.2006] "
LogCsvProfiler: Display: Metadata set : cpu="GenuineIntel|Intel(R) Core(TM) i7-4720HQ CPU @ 2.60GHz"
LogCsvProfiler: Display: Metadata set : pgoenabled="0"
LogCsvProfiler: Display: Metadata set : loginid="712401b14bffb5d654aff09c570a756d"
LogCsvProfiler: Display: Metadata set : llm="0"
LogPlatformFile: Not using cached read wrapper
LogStats: Stats thread started at 0.336809
LogICUInternationalization: ICU TimeZone Detection - Raw Offset: -8:00, Platform Override: ''
LogInit: Session CrashGUID >====================================================
         Session CrashGUID >   UECC-Windows-07D786DE44E2DD0FE7F9568EFF6EDE58
         Session CrashGUID >====================================================
LogConfig: Display: Loading HoloLens ini files took 0.04 seconds
LogConfig: Display: Loading Android ini files took 0.04 seconds
LogConfig: Display: Loading IOS ini files took 0.04 seconds
LogConfig: Display: Loading Linux ini files took 0.07 seconds
LogConfig: Display: Loading Mac ini files took 0.03 seconds
LogConfig: Display: Loading TVOS ini files took 0.05 seconds
LogConfig: Display: Loading LinuxArm64 ini files took 0.06 seconds
LogConfig: Display: Loading VulkanPC ini files took 0.03 seconds
LogConfig: Display: Loading Unix ini files took 0.04 seconds
LogConfig: Display: Loading Windows ini files took 0.04 seconds
LogPluginManager: Mounting Engine plugin Bridge
LogPluginManager: Mounting Engine plugin FastBuildController
LogPluginManager: Mounting Engine plugin MeshPainting
LogPluginManager: Mounting Engine plugin XGEController
LogPluginManager: Mounting Engine plugin BlendSpaceMotionAnalysis
LogPluginManager: Mounting Engine plugin Paper2D
LogPluginManager: Mounting Engine plugin AnimationModifierLibrary
LogPluginManager: Mounting Engine plugin ControlRig
LogPluginManager: Mounting Engine plugin ControlRigSpline
LogPluginManager: Mounting Engine plugin IKRig
LogPluginManager: Mounting Engine plugin AISupport
LogPluginManager: Mounting Engine plugin CameraShakePreviewer
LogPluginManager: Mounting Engine plugin GameplayCameras
LogPluginManager: Mounting Engine plugin EnvironmentQueryEditor
LogPluginManager: Mounting Engine plugin OodleNetwork
LogPluginManager: Mounting Engine plugin AssetManagerEditor
LogPluginManager: Mounting Engine plugin CryptoKeys
LogPluginManager: Mounting Engine plugin CurveEditorTools
LogPluginManager: Mounting Engine plugin DataValidation
LogPluginManager: Mounting Engine plugin EditorDebugTools
LogPluginManager: Mounting Engine plugin GameplayTagsEditor
LogPluginManager: Mounting Engine plugin EditorScriptingUtilities
LogPluginManager: Mounting Engine plugin FacialAnimation
LogPluginManager: Mounting Engine plugin GeometryMode
LogPluginManager: Mounting Engine plugin MacGraphicsSwitching
LogPluginManager: Mounting Engine plugin MobileLauncherProfileWizard
LogPluginManager: Mounting Engine plugin ModelingToolsEditorMode
LogPluginManager: Mounting Engine plugin PluginBrowser
LogPluginManager: Mounting Engine plugin SequencerAnimTools
LogPluginManager: Mounting Engine plugin MaterialAnalyzer
LogPluginManager: Mounting Engine plugin SpeedTreeImporter
LogPluginManager: Mounting Engine plugin StylusInput
LogPluginManager: Mounting Engine plugin WorldPartitionHLODUtilities
LogPluginManager: Mounting Engine plugin DatasmithContent
LogPluginManager: Mounting Engine plugin VariantManagerContent
LogPluginManager: Mounting Engine plugin AutomationUtils
LogPluginManager: Mounting Engine plugin BackChannel
LogPluginManager: Mounting Engine plugin ChaosCloth
LogPluginManager: Mounting Engine plugin ChaosEditor
LogPluginManager: Mounting Engine plugin ChaosNiagara
LogPluginManager: Mounting Engine plugin ChaosSolverPlugin
LogPluginManager: Mounting Engine plugin ChaosClothEditor
LogPluginManager: Mounting Engine plugin CharacterAI
LogPluginManager: Mounting Engine plugin FullBodyIK
LogPluginManager: Mounting Engine plugin AlembicImporter
LogPluginManager: Mounting Engine plugin AnimationSharing
LogPluginManager: Mounting Engine plugin CLionSourceCodeAccess
LogPluginManager: Mounting Engine plugin Niagara
LogPluginManager: Mounting Engine plugin CodeLiteSourceCodeAccess
LogPluginManager: Mounting Engine plugin GitSourceControl
LogPluginManager: Mounting Engine plugin KDevelopSourceCodeAccess
LogPluginManager: Mounting Engine plugin NullSourceCodeAccess
LogPluginManager: Mounting Engine plugin PerforceSourceControl
LogPluginManager: Mounting Engine plugin PixWinPlugin
LogPluginManager: Mounting Engine plugin PlasticSourceControl
LogPluginManager: Mounting Engine plugin PluginUtils
LogPluginManager: Mounting Engine plugin RiderSourceCodeAccess
LogPluginManager: Mounting Engine plugin SubversionSourceControl
LogPluginManager: Mounting Engine plugin PropertyAccessNode
LogPluginManager: Mounting Engine plugin TextureFormatOodle
LogPluginManager: Mounting Engine plugin TraceDataFilters
LogPluginManager: Mounting Engine plugin UObjectPlugin
LogPluginManager: Mounting Engine plugin VisualStudioSourceCodeAccess
LogPluginManager: Mounting Engine plugin VisualStudioCodeSourceCodeAccess
LogPluginManager: Mounting Engine plugin XCodeSourceCodeAccess
LogPluginManager: Mounting Engine plugin GeometryCollectionPlugin
LogPluginManager: Mounting Engine plugin GeometryFlow
LogPluginManager: Mounting Engine plugin MeshModelingToolsetExp
LogPluginManager: Mounting Engine plugin MeshLODToolset
LogPluginManager: Mounting Engine plugin OpenImageDenoise
LogPluginManager: Mounting Engine plugin PlanarCut
LogPluginManager: Mounting Engine plugin PlatformCrypto
LogPluginManager: Mounting Engine plugin ProxyLODPlugin
LogPluginManager: Mounting Engine plugin PythonScriptPlugin
LogPluginManager: Mounting Engine plugin SkeletalReduction
LogPluginManager: Mounting Engine plugin TcpMessaging
LogPluginManager: Mounting Engine plugin AndroidMedia
LogPluginManager: Mounting Engine plugin UdpMessaging
LogPluginManager: Mounting Engine plugin AvfMedia
LogPluginManager: Mounting Engine plugin ImgMedia
LogPluginManager: Mounting Engine plugin ActorSequence
LogPluginManager: Mounting Engine plugin MatineeToLevelSequence
LogPluginManager: Mounting Engine plugin LevelSequenceEditor
LogPluginManager: Mounting Engine plugin MediaCompositing
LogPluginManager: Mounting Engine plugin SequencerScripting
LogPluginManager: Mounting Engine plugin TemplateSequence
LogPluginManager: Mounting Engine plugin MediaPlayerEditor
LogPluginManager: Mounting Engine plugin WebMMedia
LogPluginManager: Mounting Engine plugin WmfMedia
LogPluginManager: Mounting Engine plugin LauncherChunkInstaller
LogPluginManager: Mounting Engine plugin AndroidDeviceProfileSelector
LogPluginManager: Mounting Engine plugin ActorLayerUtilities
LogPluginManager: Mounting Engine plugin AndroidFileServer
LogPluginManager: Mounting Engine plugin AndroidMoviePlayer
LogPluginManager: Mounting Engine plugin AndroidPermission
LogPluginManager: Mounting Engine plugin AppleImageUtils
LogPluginManager: Mounting Engine plugin AppleMoviePlayer
LogPluginManager: Mounting Engine plugin ArchVisCharacter
LogPluginManager: Mounting Engine plugin AssetTags
LogPluginManager: Mounting Engine plugin AudioCapture
LogPluginManager: Mounting Engine plugin AudioSynesthesia
LogPluginManager: Mounting Engine plugin CableComponent
LogPluginManager: Mounting Engine plugin CustomMeshComponent
LogPluginManager: Mounting Engine plugin ChunkDownloader
LogPluginManager: Mounting Engine plugin ExampleDeviceProfileSelector
LogPluginManager: Mounting Engine plugin GeometryCache
LogPluginManager: Mounting Engine plugin GeometryProcessing
LogPluginManager: Mounting Engine plugin GoogleCloudMessaging
LogPluginManager: Mounting Engine plugin GooglePAD
LogPluginManager: Mounting Engine plugin HairStrands
LogPluginManager: Mounting Engine plugin OnlineBase
LogPluginManager: Mounting Engine plugin OnlineSubsystem
LogPluginManager: Mounting Engine plugin IOSDeviceProfileSelector
LogPluginManager: Mounting Engine plugin OnlineSubsystemNull
LogPluginManager: Mounting Engine plugin LinuxDeviceProfileSelector
LogPluginManager: Mounting Engine plugin LocationServicesBPLibrary
LogPluginManager: Mounting Engine plugin MeshModelingToolset
LogPluginManager: Mounting Engine plugin OnlineSubsystemUtils
LogPluginManager: Mounting Engine plugin MobilePatchingUtils
LogPluginManager: Mounting Engine plugin ProceduralMeshComponent
LogPluginManager: Mounting Engine plugin PropertyAccessEditor
LogPluginManager: Mounting Engine plugin ResonanceAudio
LogPluginManager: Mounting Engine plugin SignificanceManager
LogPluginManager: Mounting Engine plugin RuntimePhysXCooking
LogPluginManager: Mounting Engine plugin SoundFields
LogPluginManager: Mounting Engine plugin Synthesis
LogPluginManager: Mounting Engine plugin WebMMoviePlayer
LogPluginManager: Mounting Engine plugin WindowsDeviceProfileSelector
LogPluginManager: Mounting Engine plugin WindowsMoviePlayer
LogPluginManager: Mounting Engine plugin ContentBrowserAssetDataSource
LogPluginManager: Mounting Engine plugin ContentBrowserClassDataSource
LogPluginManager: Mounting Engine plugin ContentBrowserFileDataSource
LogPluginManager: Mounting Engine plugin InterchangeEditor
LogPluginManager: Mounting Engine plugin Interchange
LogPluginManager: Mounting Engine plugin OnlineSubsystemGooglePlay
LogPluginManager: Mounting Engine plugin OnlineSubsystemIOS
LogPluginManager: Mounting Engine plugin OnlineServices
LogPackageName: Display: FPackageName: Mount point added: '../../Plugins/Bridge/Content/' mounted to '/Bridge/'
LogPackageName: Display: FPackageName: Mount point added: '../../Plugins/2D/Paper2D/Content/' mounted to '/Paper2D/'
LogPackageName: Display: FPackageName: Mount point added: '../../Plugins/Animation/ControlRig/Content/' mounted to '/ControlRig/'
LogPackageName: Display: FPackageName: Mount point added: '../../Plugins/Animation/ControlRigSpline/Content/' mounted to '/ControlRigSpline/'
LogPackageName: Display: FPackageName: Mount point added: '../../Plugins/Animation/IKRig/Content/' mounted to '/IKRig/'
LogPackageName: Display: FPackageName: Mount point added: '../../Plugins/Editor/GeometryMode/Content/' mounted to '/GeometryMode/'
LogPackageName: Display: FPackageName: Mount point added: '../../Plugins/Editor/ModelingToolsEditorMode/Content/' mounted to '/ModelingToolsEditorMode/'
LogPackageName: Display: FPackageName: Mount point added: '../../Plugins/Editor/SpeedTreeImporter/Content/' mounted to '/SpeedTreeImporter/'
LogPackageName: Display: FPackageName: Mount point added: '../../Plugins/Enterprise/DatasmithContent/Content/' mounted to '/DatasmithContent/'
LogPackageName: Display: FPackageName: Mount point added: '../../Plugins/Experimental/ChaosNiagara/Content/' mounted to '/ChaosNiagara/'
LogPackageName: Display: FPackageName: Mount point added: '../../Plugins/Experimental/ChaosSolverPlugin/Content/' mounted to '/ChaosSolverPlugin/'
LogPackageName: Display: FPackageName: Mount point added: '../../Plugins/Experimental/ChaosClothEditor/Content/' mounted to '/ChaosClothEditor/'
LogPackageName: Display: FPackageName: Mount point added: '../../Plugins/Experimental/FullBodyIK/Content/' mounted to '/FullBodyIK/'
LogPackageName: Display: FPackageName: Mount point added: '../../Plugins/Developer/AnimationSharing/Content/' mounted to '/AnimationSharing/'
LogPackageName: Display: FPackageName: Mount point added: '../../Plugins/FX/Niagara/Content/' mounted to '/Niagara/'
LogPackageName: Display: FPackageName: Mount point added: '../../Plugins/Experimental/GeometryCollectionPlugin/Content/' mounted to '/GeometryCollectionPlugin/'
LogPackageName: Display: FPackageName: Mount point added: '../../Plugins/Experimental/GeometryFlow/Content/' mounted to '/GeometryFlow/'
LogPackageName: Display: FPackageName: Mount point added: '../../Plugins/Experimental/MeshModelingToolsetExp/Content/' mounted to '/MeshModelingToolsetExp/'
LogPackageName: Display: FPackageName: Mount point added: '../../Plugins/Experimental/MeshLODToolset/Content/' mounted to '/MeshLODToolset/'
LogPackageName: Display: FPackageName: Mount point added: '../../Plugins/Experimental/PythonScriptPlugin/Content/' mounted to '/PythonScriptPlugin/'
LogPackageName: Display: FPackageName: Mount point added: '../../Plugins/Media/MediaCompositing/Content/' mounted to '/MediaCompositing/'
LogPackageName: Display: FPackageName: Mount point added: '../../Plugins/MovieScene/SequencerScripting/Content/' mounted to '/SequencerScripting/'
LogPackageName: Display: FPackageName: Mount point added: '../../Plugins/Runtime/AudioSynesthesia/Content/' mounted to '/AudioSynesthesia/'
LogPackageName: Display: FPackageName: Mount point added: '../../Plugins/Runtime/GeometryProcessing/Content/' mounted to '/GeometryProcessing/'
LogPackageName: Display: FPackageName: Mount point added: '../../Plugins/Runtime/HairStrands/Content/' mounted to '/HairStrands/'
LogPackageName: Display: FPackageName: Mount point added: '../../Plugins/Runtime/MeshModelingToolset/Content/' mounted to '/MeshModelingToolset/'
LogPackageName: Display: FPackageName: Mount point added: '../../Plugins/Runtime/ResonanceAudio/Content/' mounted to '/ResonanceAudio/'
LogPackageName: Display: FPackageName: Mount point added: '../../Plugins/Runtime/Synthesis/Content/' mounted to '/Synthesis/'
SourceControl: Source control is disabled
SourceControl: Source control is disabled
PixWinPlugin: PIX capture plugin failed to initialize! Check that the process is launched from PIX.
LogInit: Using libcurl 7.55.1-DEV
LogInit:  - built for x86_64-pc-win32
LogInit:  - supports SSL with OpenSSL/1.1.1
LogInit:  - supports HTTP deflate (compression) using libz 1.2.8
LogInit:  - other features:
LogInit:      CURL_VERSION_SSL
LogInit:      CURL_VERSION_LIBZ
LogInit:      CURL_VERSION_IPV6
LogInit:      CURL_VERSION_ASYNCHDNS
LogInit:      CURL_VERSION_LARGEFILE
LogInit:      CURL_VERSION_IDN
LogInit:  CurlRequestOptions (configurable via config and command line):
LogInit:  - bVerifyPeer = true  - Libcurl will verify peer certificate
LogInit:  - bUseHttpProxy = false  - Libcurl will NOT use HTTP proxy
LogInit:  - bDontReuseConnections = false  - Libcurl will reuse connections
LogInit:  - MaxHostConnections = 16  - Libcurl will limit the number of connections to a host
LogInit:  - LocalHostAddr = Default
LogInit:  - BufferSize = 65536
LogInit: WinSock: version 1.1 (2.2), MaxSocks=32767, MaxUdp=65467
LogOnline: OSS: Created online subsystem instance for: NULL
LogOnline: OSS: TryLoadSubsystemAndSetDefault: Loaded subsystem for module [NULL]
LogInit: Build: ++UE5+Release-5.0-CL-20979098
LogInit: Engine Version: 5.0.3-20979098+++UE5+Release-5.0
LogInit: Compatible Engine Version: 5.0.0-19505902+++UE5+Release-5.0
LogInit: Net CL: 19505902
LogInit: OS: Windows 10 (21H2) [10.0.19044.2006] (), CPU: Intel(R) Core(TM) i7-4720HQ CPU @ 2.60GHz, GPU: Intel(R) HD Graphics 4600
LogInit: Compiled (64-bit): Jul  7 2022 02:16:06
LogInit: Compiled with Visual C++: 19.29.30138.00
LogInit: Build Configuration: Development
LogInit: Branch Name: ++UE5+Release-5.0
LogInit: Command Line: 
LogInit: Base Directory: E:/Новая папка2/UE_5.0/Engine/Binaries/Win64/
LogInit: Allocator: Mimalloc
LogInit: Installed Engine Build: 1
LogDevObjectVersion: Number of dev versions registered: 34
LogDevObjectVersion:   Dev-Blueprints (B0D832E4-1F89-4F0D-ACCF-7EB736FD4AA2): 10
LogDevObjectVersion:   Dev-Build (E1C64328-A22C-4D53-A36C-8E866417BD8C): 0
LogDevObjectVersion:   Dev-Core (375EC13C-06E4-48FB-B500-84F0262A717E): 4
LogDevObjectVersion:   Dev-Editor (E4B068ED-F494-42E9-A231-DA0B2E46BB41): 40
LogDevObjectVersion:   Dev-Framework (CFFC743F-43B0-4480-9391-14DF171D2073): 37
LogDevObjectVersion:   Dev-Mobile (B02B49B5-BB20-44E9-A304-32B752E40360): 3
LogDevObjectVersion:   Dev-Networking (A4E4105C-59A1-49B5-A7C5-40C4547EDFEE): 0
LogDevObjectVersion:   Dev-Online (39C831C9-5AE6-47DC-9A44-9C173E1C8E7C): 0
LogDevObjectVersion:   Dev-Physics (78F01B33-EBEA-4F98-B9B4-84EACCB95AA2): 20
LogDevObjectVersion:   Dev-Platform (6631380F-2D4D-43E0-8009-CF276956A95A): 0
LogDevObjectVersion:   Dev-Rendering (12F88B9F-8875-4AFC-A67C-D90C383ABD29): 45
LogDevObjectVersion:   Dev-Sequencer (7B5AE74C-D270-4C10-A958-57980B212A5A): 13
LogDevObjectVersion:   Dev-VR (D7296918-1DD6-4BDD-9DE2-64A83CC13884): 3
LogDevObjectVersion:   Dev-LoadTimes (C2A15278-BFE7-4AFE-6C17-90FF531DF755): 1
LogDevObjectVersion:   Private-Geometry (6EACA3D4-40EC-4CC1-B786-8BED09428FC5): 3
LogDevObjectVersion:   Dev-AnimPhys (29E575DD-E0A3-4627-9D10-D276232CDCEA): 17
LogDevObjectVersion:   Dev-Anim (AF43A65D-7FD3-4947-9873-3E8ED9C1BB05): 15
LogDevObjectVersion:   Dev-ReflectionCapture (6B266CEC-1EC7-4B8F-A30B-E4D90942FC07): 1
LogDevObjectVersion:   Dev-Automation (0DF73D61-A23F-47EA-B727-89E90C41499A): 1
LogDevObjectVersion:   FortniteMain (601D1886-AC64-4F84-AA16-D3DE0DEAC7D6): 59
LogDevObjectVersion:   FortniteRelease (E7086368-6B23-4C58-8439-1B7016265E91): 3
LogDevObjectVersion:   Dev-Enterprise (9DFFBCD6-494F-0158-E221-12823C92A888): 10
LogDevObjectVersion:   Dev-Niagara (F2AED0AC-9AFE-416F-8664-AA7FFA26D6FC): 1
LogDevObjectVersion:   Dev-Destruction (174F1F0B-B4C6-45A5-B13F-2EE8D0FB917D): 10
LogDevObjectVersion:   Dev-Physics-Ext (35F94A83-E258-406C-A318-09F59610247C): 41
LogDevObjectVersion:   Dev-PhysicsMaterial-Chaos (B68FC16E-8B1B-42E2-B453-215C058844FE): 1
LogDevObjectVersion:   Dev-CineCamera (B2E18506-4273-CFC2-A54E-F4BB758BBA07): 1
LogDevObjectVersion:   Dev-VirtualProduction (64F58936-FD1B-42BA-BA96-7289D5D0FA4E): 1
LogDevObjectVersion:   UE5-Main (697DD581-E64F-41AB-AA4A-51ECBEB7B628): 59
LogDevObjectVersion:   UE5-Release (D89B5E42-24BD-4D46-8412-ACA8DF641779): 36
LogDevObjectVersion:   UE5-PrivateFrosty (59DA5D52-1232-4948-B878-597870B8E98B): 8
LogDevObjectVersion:   UE5-Dev-Cooker (26075A32-730F-4708-88E9-8C32F1599D05): 0
LogDevObjectVersion:   Dev-MediaFramework (6F0ED827-A609-4895-9C91-998D90180EA4): 2
LogDevObjectVersion:   UE5-Dev-LWCRendering (30D58BE3-95EA-4282-A6E3-B159D8EBB06A): 1
LogInit: Presizing for max 25165824 objects, including 0 objects not considered by GC, pre-allocating 0 bytes for permanent pool.
LogInit: Object subsystem initialized
LogConfig: CVar [[con.DebugLateDefault:1]] deferred - dummy variable created
LogConfig: CVar [[con.DebugLateCheat:1]] deferred - dummy variable created
LogConfig: CVar [[r.DetectAndWarnOfBadDrivers:0]] deferred - dummy variable created
LogConfig: CVar [[LogNamedEventFilters:Frame *]] deferred - dummy variable created
LogConfig: CVar [[framepro.ScopeMinTimeMicroseconds:10]] deferred - dummy variable created
LogConfig: CVar [[QualityLevelMapping:high]] deferred - dummy variable created
[2022.09.27-19.49.36:289][  0]LogConfig: Applying CVar settings from Section [/Script/Engine.RendererSettings] File [Engine]
[2022.09.27-19.49.36:289][  0]LogConfig: CVar [[VisualizeCalibrationColorMaterialPath:/Engine/EngineMaterials/PPM_DefaultCalibrationColor.PPM_DefaultCalibrationColor]] deferred - dummy variable created
[2022.09.27-19.49.36:289][  0]LogConfig: CVar [[VisualizeCalibrationGrayscaleMaterialPath:/Engine/EngineMaterials/PPM_DefaultCalibrationGrayscale.PPM_DefaultCalibrationGrayscale]] deferred - dummy variable created
[2022.09.27-19.49.36:289][  0]LogConfig: CVar [[MaxSkinBones:(Default=65536,PerPlatform=(("Mobile", 256)))]] deferred - dummy variable created
[2022.09.27-19.49.36:289][  0]LogConfig: Applying CVar settings from Section [/Script/Engine.RendererOverrideSettings] File [Engine]
[2022.09.27-19.49.36:289][  0]LogConfig: Applying CVar settings from Section [/Script/Engine.StreamingSettings] File [Engine]
[2022.09.27-19.49.36:290][  0]LogConfig: CVar [[s.MaxPackageSummarySize:16384]] deferred - dummy variable created
[2022.09.27-19.49.36:290][  0]LogConfig: CVar [[FixedBootOrder:/Script/Engine/Default__SoundBase]] deferred - dummy variable created
[2022.09.27-19.49.36:290][  0]LogConfig: CVar [[FixedBootOrder:/Script/Engine/Default__MaterialInterface]] deferred - dummy variable created
[2022.09.27-19.49.36:290][  0]LogConfig: CVar [[FixedBootOrder:/Script/Engine/Default__DeviceProfileManager]] deferred - dummy variable created
[2022.09.27-19.49.36:290][  0]LogConfig: Applying CVar settings from Section [/Script/Engine.GarbageCollectionSettings] File [Engine]
[2022.09.27-19.49.36:290][  0]LogConfig: Applying CVar settings from Section [/Script/Engine.NetworkSettings] File [Engine]
[2022.09.27-19.49.36:290][  0]LogConfig: CVar [[NetworkEmulationProfiles:(ProfileName="Average",ToolTip="Simulates average internet conditions")]] deferred - dummy variable created
[2022.09.27-19.49.36:290][  0]LogConfig: CVar [[NetworkEmulationProfiles:(ProfileName="Bad",ToolTip="Simulates laggy internet conditions")]] deferred - dummy variable created
[2022.09.27-19.49.36:290][  0]LogConfig: Applying CVar settings from Section [/Script/UnrealEd.CookerSettings] File [Engine]
[2022.09.27-19.49.36:290][  0]LogConfig: CVar [[DefaultPVRTCQuality:1]] deferred - dummy variable created
[2022.09.27-19.49.36:290][  0]LogConfig: CVar [[DefaultASTCQualityBySpeed:1]] deferred - dummy variable created
[2022.09.27-19.49.36:290][  0]LogConfig: CVar [[DefaultASTCQualityBySize:3]] deferred - dummy variable created
[2022.09.27-19.49.36:290][  0]LogConfig: CVar [[ClassesExcludedOnDedicatedServer:WidgetBlueprint]] deferred - dummy variable created
[2022.09.27-19.49.36:290][  0]LogConfig: CVar [[ClassesExcludedOnDedicatedServer:GroupActor]] deferred - dummy variable created
[2022.09.27-19.49.36:290][  0]LogConfig: CVar [[ClassesExcludedOnDedicatedServer:MetaData]] deferred - dummy variable created
[2022.09.27-19.49.36:290][  0]LogConfig: CVar [[ClassesExcludedOnDedicatedServer:ObjectRedirector]] deferred - dummy variable created
[2022.09.27-19.49.36:290][  0]LogConfig: CVar [[ClassesExcludedOnDedicatedServer:NavMeshRenderingComponent]] deferred - dummy variable created
[2022.09.27-19.49.36:290][  0]LogConfig: CVar [[ClassesExcludedOnDedicatedServer:ReflectionCaptureComponent]] deferred - dummy variable created
[2022.09.27-19.49.36:290][  0]LogConfig: CVar [[ClassesExcludedOnDedicatedServer:TextRenderComponent]] deferred - dummy variable created
[2022.09.27-19.49.36:290][  0]LogConfig: CVar [[ClassesExcludedOnDedicatedServer:Font]] deferred - dummy variable created
[2022.09.27-19.49.36:290][  0]LogConfig: CVar [[ClassesExcludedOnDedicatedServer:InterpCurveEdSetup]] deferred - dummy variable created
[2022.09.27-19.49.36:290][  0]LogConfig: CVar [[ClassesExcludedOnDedicatedServer:MaterialExpression]] deferred - dummy variable created
[2022.09.27-19.49.36:290][  0]LogConfig: CVar [[ClassesExcludedOnDedicatedServer:MatineeActorCameraAnim]] deferred - dummy variable created
[2022.09.27-19.49.36:290][  0]LogConfig: CVar [[ClassesExcludedOnDedicatedServer:NiagaraEmitter]] deferred - dummy variable created
[2022.09.27-19.49.36:290][  0]LogConfig: CVar [[ClassesExcludedOnDedicatedServer:NiagaraScript]] deferred - dummy variable created
[2022.09.27-19.49.36:290][  0]LogConfig: CVar [[ClassesExcludedOnDedicatedServer:ParticleEmitter]] deferred - dummy variable created
[2022.09.27-19.49.36:290][  0]LogConfig: CVar [[ClassesExcludedOnDedicatedServer:ParticleLODLevel]] deferred - dummy variable created
[2022.09.27-19.49.36:290][  0]LogConfig: CVar [[ClassesExcludedOnDedicatedServer:ParticleModule]] deferred - dummy variable created
[2022.09.27-19.49.36:290][  0]LogConfig: CVar [[ClassesExcludedOnDedicatedServer:SubUVAnimation]] deferred - dummy variable created
[2022.09.27-19.49.36:290][  0]LogConfig: CVar [[ClassesExcludedOnDedicatedServer:SoundNode]] deferred - dummy variable created
[2022.09.27-19.49.36:290][  0]LogConfig: CVar [[ClassesExcludedOnDedicatedServer:GameplayEffectUIData]] deferred - dummy variable created
[2022.09.27-19.49.36:290][  0]LogConfig: CVar [[ClassesExcludedOnDedicatedClient:WidgetBlueprint]] deferred - dummy variable created
[2022.09.27-19.49.36:290][  0]LogConfig: CVar [[ClassesExcludedOnDedicatedClient:GroupActor]] deferred - dummy variable created
[2022.09.27-19.49.36:290][  0]LogConfig: CVar [[ClassesExcludedOnDedicatedClient:MetaData]] deferred - dummy variable created
[2022.09.27-19.49.36:290][  0]LogConfig: CVar [[ClassesExcludedOnDedicatedClient:ObjectRedirector]] deferred - dummy variable created
[2022.09.27-19.49.36:290][  0]LogConfig: CVar [[ClassesExcludedOnDedicatedClient:InterpCurveEdSetup]] deferred - dummy variable created
[2022.09.27-19.49.36:290][  0]LogConfig: CVar [[ClassesExcludedOnDedicatedClient:MatineeActorCameraAnim]] deferred - dummy variable created
[2022.09.27-19.49.36:290][  0]LogConfig: CVar [[VersionedIntRValues:r.AllowStaticLighting]] deferred - dummy variable created
[2022.09.27-19.49.36:290][  0]LogConfig: CVar [[VersionedIntRValues:r.GBuffer]] deferred - dummy variable created
[2022.09.27-19.49.36:290][  0]LogConfig: CVar [[VersionedIntRValues:r.VelocityOutputPass]] deferred - dummy variable created
[2022.09.27-19.49.36:290][  0]LogConfig: CVar [[VersionedIntRValues:r.SelectiveBasePassOutputs]] deferred - dummy variable created
[2022.09.27-19.49.36:290][  0]LogConfig: CVar [[VersionedIntRValues:r.DBuffer]] deferred - dummy variable created
[2022.09.27-19.49.36:290][  0]LogConfig: CVar [[VersionedIntRValues:r.Shaders.Symbols]] deferred - dummy variable created
[2022.09.27-19.49.36:290][  0]LogConfig: CVar [[VersionedIntRValues:r.Shaders.GenerateSymbols]] deferred - dummy variable created
[2022.09.27-19.49.36:290][  0]LogConfig: CVar [[VersionedIntRValues:r.Shaders.WriteSymbols]] deferred - dummy variable created
[2022.09.27-19.49.36:290][  0]LogConfig: CVar [[VersionedIntRValues:r.Shaders.AllowUniqueSymbols]] deferred - dummy variable created
[2022.09.27-19.49.36:290][  0]LogConfig: CVar [[VersionedIntRValues:r.Shaders.ExtraData]] deferred - dummy variable created
[2022.09.27-19.49.36:290][  0]LogConfig: CVar [[VersionedIntRValues:r.Shaders.Optimize]] deferred - dummy variable created
[2022.09.27-19.49.36:290][  0]LogConfig: CVar [[VersionedIntRValues:r.CompileShadersForDevelopment]] deferred - dummy variable created
[2022.09.27-19.49.36:290][  0]LogConfig: CVar [[VersionedIntRValues:r.MobileHDR]] deferred - dummy variable created
[2022.09.27-19.49.36:290][  0]LogConfig: CVar [[VersionedIntRValues:r.UsePreExposure]] deferred - dummy variable created
[2022.09.27-19.49.36:293][  0]LogConfig: Applying CVar settings from Section [ViewDistanceQuality@3] File [Scalability]
[2022.09.27-19.49.36:293][  0]LogConfig: Applying CVar settings from Section [AntiAliasingQuality@3] File [Scalability]
[2022.09.27-19.49.36:293][  0]LogConfig: Applying CVar settings from Section [ShadowQuality@3] File [Scalability]
[2022.09.27-19.49.36:294][  0]LogConfig: Applying CVar settings from Section [GlobalIlluminationQuality@3] File [Scalability]
[2022.09.27-19.49.36:294][  0]LogConfig: Applying CVar settings from Section [ReflectionQuality@3] File [Scalability]
[2022.09.27-19.49.36:294][  0]LogConfig: Applying CVar settings from Section [PostProcessQuality@3] File [Scalability]
[2022.09.27-19.49.36:294][  0]LogConfig: Applying CVar settings from Section [TextureQuality@3] File [Scalability]
[2022.09.27-19.49.36:294][  0]LogConfig: Applying CVar settings from Section [EffectsQuality@3] File [Scalability]
[2022.09.27-19.49.36:294][  0]LogConfig: Applying CVar settings from Section [FoliageQuality@3] File [Scalability]
[2022.09.27-19.49.36:294][  0]LogConfig: Applying CVar settings from Section [ShadingQuality@3] File [Scalability]
[2022.09.27-19.49.36:294][  0]LogConfig: CVar [[r.HairStrands.Interpolation.UseSingleGuide:0]] deferred - dummy variable created
[2022.09.27-19.49.36:346][  0]LogD3D12RHI: Aftermath initialized
[2022.09.27-19.49.36:346][  0]LogD3D12RHI: Loading WinPixEventRuntime.dll for PIX profiling (from ../../../Engine/Binaries/ThirdParty/Windows/WinPixEventRuntime/x64).
[2022.09.27-19.49.36:742][  0]LogD3D12RHI: Found D3D12 adapter 0: NVIDIA GeForce GTX 960M (Max supported Feature Level 11_0, shader model 6.6)
[2022.09.27-19.49.36:742][  0]LogD3D12RHI: Adapter has 2010MB of dedicated video memory, 0MB of dedicated system memory, and 8136MB of shared system memory, 1 output[s]
[2022.09.27-19.49.36:750][  0]LogD3D12RHI: Found D3D12 adapter 1: Intel(R) HD Graphics 4600 (Max supported Feature Level 11_1, shader model 5.1)
[2022.09.27-19.49.36:750][  0]LogD3D12RHI: Adapter has 112MB of dedicated video memory, 0MB of dedicated system memory, and 2048MB of shared system memory, 0 output[s]
[2022.09.27-19.49.36:762][  0]LogD3D12RHI: Found D3D12 adapter 2: Microsoft Basic Render Driver (Max supported Feature Level 12_1, shader model 6.2)
[2022.09.27-19.49.36:762][  0]LogD3D12RHI: Adapter has 0MB of dedicated video memory, 0MB of dedicated system memory, and 8136MB of shared system memory, 0 output[s]
[2022.09.27-19.49.36:762][  0]LogD3D12RHI: Chosen D3D12 Adapter Id = 0
[2022.09.27-19.49.36:762][  0]LogInit: Selected Device Profile: [WindowsEditor]
[2022.09.27-19.49.36:762][  0]LogDeviceProfileManager: Applying CVar settings loaded from the selected device profile: [WindowsEditor]
[2022.09.27-19.49.36:762][  0]LogHAL: Display: Platform has ~ 16 GB [17063514112 / 17179869184 / 16], which maps to Larger [LargestMinGB=32, LargerMinGB=12, DefaultMinGB=8, SmallerMinGB=6, SmallestMinGB=0)
[2022.09.27-19.49.36:762][  0]LogDeviceProfileManager: Going up to parent DeviceProfile [Windows]
[2022.09.27-19.49.36:762][  0]LogDeviceProfileManager: Going up to parent DeviceProfile []
[2022.09.27-19.49.36:762][  0]LogConfig: Applying CVar settings from Section [ViewDistanceQuality@0] File [Scalability]
[2022.09.27-19.49.36:762][  0]LogConfig: Applying CVar settings from Section [AntiAliasingQuality@0] File [Scalability]
[2022.09.27-19.49.36:762][  0]LogConfig: Applying CVar settings from Section [ShadowQuality@0] File [Scalability]
[2022.09.27-19.49.36:763][  0]LogConfig: Applying CVar settings from Section [GlobalIlluminationQuality@0] File [Scalability]
[2022.09.27-19.49.36:763][  0]LogConfig: Applying CVar settings from Section [ReflectionQuality@0] File [Scalability]
[2022.09.27-19.49.36:763][  0]LogConfig: Applying CVar settings from Section [PostProcessQuality@0] File [Scalability]
[2022.09.27-19.49.36:763][  0]LogConfig: Applying CVar settings from Section [TextureQuality@0] File [Scalability]
[2022.09.27-19.49.36:763][  0]LogConfig: Applying CVar settings from Section [EffectsQuality@0] File [Scalability]
[2022.09.27-19.49.36:763][  0]LogConfig: Applying CVar settings from Section [FoliageQuality@0] File [Scalability]
[2022.09.27-19.49.36:763][  0]LogConfig: Applying CVar settings from Section [ShadingQuality@0] File [Scalability]
[2022.09.27-19.49.36:763][  0]LogConfig: CVar [[r.HairStrands.Interpolation.UseSingleGuide:1]] deferred - dummy variable created
[2022.09.27-19.49.36:763][  0]LogConfig: Applying CVar settings from Section [Startup] File [../../../Engine/Config/ConsoleVariables.ini]
[2022.09.27-19.49.36:763][  0]LogConfig: Applying CVar settings from Section [ConsoleVariables] File [Engine]
[2022.09.27-19.49.36:763][  0]LogConfig: Applying CVar settings from Section [ConsoleVariables] File [C:/Users/ROG2/OneDrive/Documents/Unreal Projects/MyProject3/Saved/Config/WindowsEditor/Editor.ini]
[2022.09.27-19.49.36:763][  0]LogInit: Computer: DESKTOP-MRNAUKL
[2022.09.27-19.49.36:763][  0]LogInit: User: ROG2
[2022.09.27-19.49.36:763][  0]LogInit: CPU Page size=4096, Cores=4
[2022.09.27-19.49.36:763][  0]LogInit: High frequency timer resolution =10.000000 MHz
[2022.09.27-19.49.36:763][  0]LogMemory: Memory total: Physical=15.9GB (16GB approx)
[2022.09.27-19.49.36:763][  0]LogMemory: Platform Memory Stats for WindowsEditor
[2022.09.27-19.49.36:763][  0]LogMemory: Process Physical Memory: 267.38 MB used, 276.40 MB peak
[2022.09.27-19.49.36:763][  0]LogMemory: Process Virtual Memory: 214.24 MB used, 214.24 MB peak
[2022.09.27-19.49.36:763][  0]LogMemory: Physical Memory: 6826.25 MB used,  9446.79 MB free, 16273.04 MB total
[2022.09.27-19.49.36:763][  0]LogMemory: Virtual Memory: 7997.21 MB used,  12883.82 MB free, 20881.04 MB total
[2022.09.27-19.49.36:763][  0]LogCsvProfiler: Display: Metadata set : extradevelopmentmemorymb="0"
[2022.09.27-19.49.36:784][  0]LogWindows: WindowsPlatformFeatures enabled
[2022.09.27-19.49.36:815][  0]LogInit: Physics initialised using underlying interface: Chaos
[2022.09.27-19.49.36:816][  0]LogInit: Using OS detected language (ru-RU).
[2022.09.27-19.49.36:816][  0]LogInit: Using OS detected locale (ru-RU).
[2022.09.27-19.49.36:820][  0]LogTextLocalizationManager: No specific localization for 'ru-RU' exists, so 'ru' will be used for the language.
[2022.09.27-19.49.36:821][  0]LogTextLocalizationResource: LocRes '../../../Engine/Content/Localization/Editor/ru/Editor.locres' could not be opened for reading!
[2022.09.27-19.49.36:821][  0]LogTextLocalizationResource: LocRes '../../../Engine/Content/Localization/EditorTutorials/ru/EditorTutorials.locres' could not be opened for reading!
[2022.09.27-19.49.36:821][  0]LogTextLocalizationResource: LocRes '../../../Engine/Content/Localization/Keywords/ru/Keywords.locres' could not be opened for reading!
[2022.09.27-19.49.36:821][  0]LogTextLocalizationResource: LocRes '../../../Engine/Content/Localization/Category/ru/Category.locres' could not be opened for reading!
[2022.09.27-19.49.36:821][  0]LogTextLocalizationResource: LocRes '../../../Engine/Content/Localization/ToolTips/ru/ToolTips.locres' could not be opened for reading!
[2022.09.27-19.49.36:822][  0]LogTextLocalizationResource: LocRes '../../../Engine/Content/Localization/PropertyNames/ru/PropertyNames.locres' could not be opened for reading!
[2022.09.27-19.49.36:822][  0]LogTextLocalizationResource: LocRes '../../../Engine/Content/Localization/Engine/ru/Engine.locres' could not be opened for reading!
[2022.09.27-19.49.36:823][  0]LogInit: Setting process to per monitor DPI aware
[2022.09.27-19.49.36:838][  0]LogWindowsTextInputMethodSystem: Available input methods:
[2022.09.27-19.49.36:838][  0]LogWindowsTextInputMethodSystem:   - Русский (Россия) - (Keyboard).
[2022.09.27-19.49.36:838][  0]LogWindowsTextInputMethodSystem:   - Английский (США) - (Keyboard).
[2022.09.27-19.49.36:838][  0]LogWindowsTextInputMethodSystem: Activated input method: Русский (Россия) - (Keyboard).
[2022.09.27-19.49.36:856][  0]LogSlate: New Slate User Created.  User Index 0, Is Virtual User: 0
[2022.09.27-19.49.36:856][  0]LogSlate: Slate User Registered.  User Index 0, Is Virtual User: 0
[2022.09.27-19.49.37:012][  0]LogD3D12RHI: InitD3DDevice: -D3DDebug = off -D3D12GPUValidation = off
[2022.09.27-19.49.37:017][  0]LogD3D12RHI: [Aftermath] Aftermath crash dumping enabled
[2022.09.27-19.49.37:017][  0]LogD3D12RHI: Emitting draw events for PIX profiling.
[2022.09.27-19.49.37:292][  0]LogD3D12RHI: [Aftermath] Aftermath enabled and primed
[2022.09.27-19.49.37:292][  0]LogD3D12RHI: [Aftermath] Aftermath resource tracking enabled
[2022.09.27-19.49.37:292][  0]LogD3D12RHI: ID3D12Device1 is supported.
[2022.09.27-19.49.37:292][  0]LogD3D12RHI: ID3D12Device2 is supported.
[2022.09.27-19.49.37:292][  0]LogD3D12RHI: ID3D12Device3 is supported.
[2022.09.27-19.49.37:292][  0]LogD3D12RHI: ID3D12Device4 is supported.
[2022.09.27-19.49.37:292][  0]LogD3D12RHI: ID3D12Device5 is supported.
[2022.09.27-19.49.37:292][  0]LogD3D12RHI: ID3D12Device6 is supported.
[2022.09.27-19.49.37:292][  0]LogD3D12RHI: ID3D12Device7 is supported.
[2022.09.27-19.49.37:292][  0]LogD3D12RHI: AtomicInt64OnTypedResource is supported
[2022.09.27-19.49.37:292][  0]LogD3D12RHI: AtomicInt64OnGroupShared is supported
[2022.09.27-19.49.37:292][  0]LogD3D12RHI: AtomicInt64OnDescriptorHeapResource is supported
[2022.09.27-19.49.37:292][  0]LogD3D12RHI: Shader Model 6.6 atomic64 is supported
[2022.09.27-19.49.37:389][  0]LogD3D12RHI: [GPUBreadCrumb] Successfully setup breadcrumb resource for 3D Queue 0
[2022.09.27-19.49.37:398][  0]LogD3D12RHI: [GPUBreadCrumb] Successfully setup breadcrumb resource for Copy Queue 0
[2022.09.27-19.49.37:412][  0]LogD3D12RHI: [GPUBreadCrumb] Successfully setup breadcrumb resource for Compute Queue 0
[2022.09.27-19.49.37:438][  0]LogD3D12RHI: Display: Not using pipeline state disk cache per r.D3D12.PSO.DiskCache=0
[2022.09.27-19.49.37:438][  0]LogD3D12RHI: Display: Not using driver-optimized pipeline state disk cache per r.D3D12.PSO.DriverOptimizedDiskCache=0
[2022.09.27-19.49.37:511][  0]LogD3D12RHI:     GPU DeviceId: 0x139b (for the marketing name, search the web for "GPU Device Id")
[2022.09.27-19.49.37:511][  0]LogWindows: Attached monitors:
[2022.09.27-19.49.37:511][  0]LogWindows:     resolution: 1920x1080, work area: (0, 0) -> (1920, 1030), device: '\\.\DISPLAY1' [PRIMARY]
[2022.09.27-19.49.37:511][  0]LogWindows: Found 1 attached monitors.
[2022.09.27-19.49.37:511][  0]LogWindows: EnumDisplayDevices:
[2022.09.27-19.49.37:511][  0]LogWindows:    0. 'Intel(R) HD Graphics 4600' (P:1 D:1), name: '\\.\DISPLAY1'
[2022.09.27-19.49.37:512][  0]LogWindows:    1. 'Intel(R) HD Graphics 4600' (P:0 D:0), name: '\\.\DISPLAY2'
[2022.09.27-19.49.37:512][  0]LogWindows:    2. 'Intel(R) HD Graphics 4600' (P:0 D:0), name: '\\.\DISPLAY3'
[2022.09.27-19.49.37:513][  0]LogWindows: DebugString: PrimaryIsNotTheChoosenAdapter PrimaryIsNotTheChoosenAdapter PrimaryIsNotTheChoosenAdapter FoundDriverCount:0 
[2022.09.27-19.49.37:513][  0]LogD3D12RHI:     Adapter Name: NVIDIA GeForce GTX 960M
[2022.09.27-19.49.37:513][  0]LogD3D12RHI:   Driver Version: Unknown (internal:Unknown, unified:Unknown)
[2022.09.27-19.49.37:513][  0]LogD3D12RHI:      Driver Date: Unknown
[2022.09.27-19.49.37:513][  0]LogRHI: Texture pool is 1076 MB (70% of 1537 MB)
[2022.09.27-19.49.37:513][  0]LogD3D12RHI: Async texture creation enabled
[2022.09.27-19.49.37:513][  0]LogD3D12RHI: RHI has support for 64 bit atomics
[2022.09.27-19.49.37:530][  0]LogRHI: GeForceNow SDK initialized: 0
[2022.09.27-19.49.37:536][  0]LogTurnkeySupport: Running Turnkey SDK detection: ' -ScriptsForProject="C:/Users/ROG2/OneDrive/Documents/Unreal Projects/MyProject3/MyProject3.uproject" Turnkey -utf8output -WaitForUATMutex -command=VerifySdk -ReportFilename="C:/Users/ROG2/OneDrive/Documents/Unreal Projects/MyProject3/Intermediate/TurnkeyReport_0.log" -log="C:/Users/ROG2/OneDrive/Documents/Unreal Projects/MyProject3/Intermediate/TurnkeyLog_0.log" -project="C:/Users/ROG2/OneDrive/Documents/Unreal Projects/MyProject3/MyProject3.uproject"  -platform=all'
[2022.09.27-19.49.37:537][  0]LogMonitoredProcess: Running Serialized UAT: [ cmd.exe /c ""E:/Новая папка2/UE_5.0/Engine/Build/BatchFiles/RunUAT.bat"  -ScriptsForProject="C:/Users/ROG2/OneDrive/Documents/Unreal Projects/MyProject3/MyProject3.uproject" Turnkey -utf8output -WaitForUATMutex -command=VerifySdk -ReportFilename="C:/Users/ROG2/OneDrive/Documents/Unreal Projects/MyProject3/Intermediate/TurnkeyReport_0.log" -log="C:/Users/ROG2/OneDrive/Documents/Unreal Projects/MyProject3/Intermediate/TurnkeyLog_0.log" -project="C:/Users/ROG2/OneDrive/Documents/Unreal Projects/MyProject3/MyProject3.uproject"  -platform=all" ]
[2022.09.27-19.49.37:564][  0]LogTextureFormatETC2: Display: ETC2 Texture loading DLL: TextureConverter.dll
[2022.09.27-19.49.37:572][  0]LogTextureFormatOodle: Display: Oodle Texture TFO init; latest sdk version = 2.9.5
[2022.09.27-19.49.37:572][  0]LogTextureFormatOodle: Display: Oodle Texture loading DLL: oo2tex_win64_2.9.5.dll
[2022.09.27-19.49.37:580][  0]LogTargetPlatformManager: Display: Loaded TargetPlatform 'Android'
[2022.09.27-19.49.37:580][  0]LogTargetPlatformManager: Display: Loaded TargetPlatform 'Android_ASTC'
[2022.09.27-19.49.37:580][  0]LogTargetPlatformManager: Display: Loaded TargetPlatform 'Android_DXT'
[2022.09.27-19.49.37:580][  0]LogTargetPlatformManager: Display: Loaded TargetPlatform 'Android_ETC2'
[2022.09.27-19.49.37:580][  0]LogTargetPlatformManager: Display: Loaded TargetPlatform 'AndroidClient'
[2022.09.27-19.49.37:580][  0]LogTargetPlatformManager: Display: Loaded TargetPlatform 'Android_ASTCClient'
[2022.09.27-19.49.37:580][  0]LogTargetPlatformManager: Display: Loaded TargetPlatform 'Android_DXTClient'
[2022.09.27-19.49.37:580][  0]LogTargetPlatformManager: Display: Loaded TargetPlatform 'Android_ETC2Client'
[2022.09.27-19.49.37:580][  0]LogTargetPlatformManager: Display: Loaded TargetPlatform 'Android_Multi'
[2022.09.27-19.49.37:580][  0]LogTargetPlatformManager: Display: Loaded TargetPlatform 'Android_MultiClient'
[2022.09.27-19.49.37:607][  0]LogTargetPlatformManager: Display: Loaded TargetPlatform 'HoloLens'
[2022.09.27-19.49.37:607][  0]LogTargetPlatformManager: Display: Loaded TargetPlatform 'HoloLensClient'
[2022.09.27-19.49.37:611][  0]LogTargetPlatformManager: Display: Loaded TargetPlatform 'IOS'
[2022.09.27-19.49.37:611][  0]LogTargetPlatformManager: Display: Loaded TargetPlatform 'IOSClient'
[2022.09.27-19.49.37:615][  0]LogTargetPlatformManager: Display: Loaded TargetPlatform 'Linux'
[2022.09.27-19.49.37:615][  0]LogTargetPlatformManager: Display: Loaded TargetPlatform 'LinuxEditor'
[2022.09.27-19.49.37:615][  0]LogTargetPlatformManager: Display: Loaded TargetPlatform 'LinuxServer'
[2022.09.27-19.49.37:615][  0]LogTargetPlatformManager: Display: Loaded TargetPlatform 'LinuxClient'
[2022.09.27-19.49.37:619][  0]LogTargetPlatformManager: Display: Loaded TargetPlatform 'LinuxArm64'
[2022.09.27-19.49.37:619][  0]LogTargetPlatformManager: Display: Loaded TargetPlatform 'LinuxArm64Server'
[2022.09.27-19.49.37:619][  0]LogTargetPlatformManager: Display: Loaded TargetPlatform 'LinuxArm64Client'
[2022.09.27-19.49.37:622][  0]LogTargetPlatformManager: Display: Loaded TargetPlatform 'TVOS'
[2022.09.27-19.49.37:622][  0]LogTargetPlatformManager: Display: Loaded TargetPlatform 'TVOSClient'
[2022.09.27-19.49.37:629][  0]LogTargetPlatformManager: Display: Loaded TargetPlatform 'Windows'
[2022.09.27-19.49.37:629][  0]LogTargetPlatformManager: Display: Loaded TargetPlatform 'WindowsEditor'
[2022.09.27-19.49.37:629][  0]LogTargetPlatformManager: Display: Loaded TargetPlatform 'WindowsServer'
[2022.09.27-19.49.37:629][  0]LogTargetPlatformManager: Display: Loaded TargetPlatform 'WindowsClient'
[2022.09.27-19.49.37:629][  0]LogTargetPlatformManager: Display: Building Assets For WindowsEditor
[2022.09.27-19.49.37:637][  0]LogAudioDebug: Display: Lib vorbis DLL was dynamically loaded.
[2022.09.27-19.49.37:640][  0]LogTargetPlatformManager: Unable to find audio format BINKA from hinted modules, loading all potential format modules to find it
[2022.09.27-19.49.37:640][  0]LogTargetPlatformManager: Loaded format module AudioFormatADPCM
[2022.09.27-19.49.37:640][  0]LogTargetPlatformManager:   ADPCM
[2022.09.27-19.49.37:640][  0]LogTargetPlatformManager:   PCM
[2022.09.27-19.49.37:643][  0]LogTargetPlatformManager: Loaded format module AudioFormatBink
[2022.09.27-19.49.37:643][  0]LogTargetPlatformManager:   BINKA
[2022.09.27-19.49.37:643][  0]LogTargetPlatformManager: Loaded format module AudioFormatOgg
[2022.09.27-19.49.37:643][  0]LogTargetPlatformManager:   OGG
[2022.09.27-19.49.37:643][  0]LogTargetPlatformManager: Loaded format module AudioFormatOpus
[2022.09.27-19.49.37:643][  0]LogTargetPlatformManager:   OPUS
[2022.09.27-19.49.37:688][  0]LogTargetPlatformManager: Unable to find shader format SF_METAL from hinted modules, loading all potential format modules to find it
[2022.09.27-19.49.37:697][  0]LogTargetPlatformManager: Loaded format module MetalShaderFormat
[2022.09.27-19.49.37:697][  0]LogTargetPlatformManager:   SF_METAL
[2022.09.27-19.49.37:697][  0]LogTargetPlatformManager:   SF_METAL_MRT
[2022.09.27-19.49.37:697][  0]LogTargetPlatformManager:   SF_METAL_TVOS
[2022.09.27-19.49.37:697][  0]LogTargetPlatformManager:   SF_METAL_MRT_TVOS
[2022.09.27-19.49.37:697][  0]LogTargetPlatformManager:   SF_METAL_SM5
[2022.09.27-19.49.37:697][  0]LogTargetPlatformManager:   SF_METAL_MACES3_1
[2022.09.27-19.49.37:697][  0]LogTargetPlatformManager:   SF_METAL_MRT_MAC
[2022.09.27-19.49.37:697][  0]LogTargetPlatformManager: Loaded format module ShaderFormatD3D
[2022.09.27-19.49.37:697][  0]LogTargetPlatformManager:   PCD3D_SM6
[2022.09.27-19.49.37:697][  0]LogTargetPlatformManager:   PCD3D_SM5
[2022.09.27-19.49.37:697][  0]LogTargetPlatformManager:   PCD3D_ES31
[2022.09.27-19.49.37:698][  0]LogTargetPlatformManager:   D3D_ES3_1_HOLOLENS
[2022.09.27-19.49.37:698][  0]LogTargetPlatformManager: Loaded format module ShaderFormatOpenGL
[2022.09.27-19.49.37:698][  0]LogTargetPlatformManager:   GLSL_150_ES31
[2022.09.27-19.49.37:698][  0]LogTargetPlatformManager:   GLSL_ES3_1_ANDROID
[2022.09.27-19.49.37:701][  0]LogTurnkeySupport: Completed SDK detection: ExitCode = 0
[2022.09.27-19.49.37:701][  0]LogTargetPlatformManager: Loaded format module ShaderFormatVectorVM
[2022.09.27-19.49.37:701][  0]LogTargetPlatformManager:   VVM_1_0
[2022.09.27-19.49.37:701][  0]LogTargetPlatformManager: Loaded format module VulkanShaderFormat
[2022.09.27-19.49.37:701][  0]LogTargetPlatformManager:   SF_VULKAN_SM5
[2022.09.27-19.49.37:701][  0]LogTargetPlatformManager:   SF_VULKAN_ES31_ANDROID
[2022.09.27-19.49.37:701][  0]LogTargetPlatformManager:   SF_VULKAN_ES31
[2022.09.27-19.49.37:701][  0]LogTargetPlatformManager:   SF_VULKAN_SM5_ANDROID
[2022.09.27-19.49.37:702][  0]LogRendererCore: Ray tracing is disabled. Reason: r.RayTracing=0.
[2022.09.27-19.49.37:702][  0]LogShaderCompilers: Display: Compiling shader autogen file: C:/Users/ROG2/OneDrive/Documents/Unreal Projects/MyProject3/Intermediate/ShaderAutogen/PCD3D_SM5/AutogenShaderHeaders.ush
[2022.09.27-19.49.37:712][  0]LogShaderCompilers: Display: Autogen file is unchanged, skipping write.
[2022.09.27-19.49.37:712][  0]LogShaderCompilers: Display: Compiling shader autogen file: C:/Users/ROG2/OneDrive/Documents/Unreal Projects/MyProject3/Intermediate/ShaderAutogen/PCD3D_ES31/AutogenShaderHeaders.ush
[2022.09.27-19.49.37:726][  0]LogShaderCompilers: Display: Autogen file is unchanged, skipping write.
[2022.09.27-19.49.37:730][  0]LogDerivedDataCache: FDerivedDataBackendGraph:  Pak pak cache file C:/Users/ROG2/OneDrive/Documents/Unreal Projects/MyProject3/DerivedDataCache/DDC.ddp not found, will not use a pak cache.
[2022.09.27-19.49.37:730][  0]LogDerivedDataCache: Unable to find inner node Pak for hierarchy Hierarchy.
[2022.09.27-19.49.37:730][  0]LogDerivedDataCache: FDerivedDataBackendGraph:  CompressedPak pak cache file C:/Users/ROG2/OneDrive/Documents/Unreal Projects/MyProject3/DerivedDataCache/Compressed.ddp not found, will not use a pak cache.
[2022.09.27-19.49.37:730][  0]LogDerivedDataCache: Unable to find inner node CompressedPak for hierarchy Hierarchy.
[2022.09.27-19.49.37:753][  0]LogDerivedDataCache: Display: ../../../Engine/DerivedDataCache/Compressed.ddp: Opened pak cache for reading. (1230 MiB)
[2022.09.27-19.49.37:754][  0]LogDerivedDataCache: FDerivedDataBackendGraph:  EnterprisePak pak cache file ../../../Enterprise/DerivedDataCache/Compressed.ddp not found, will not use a pak cache.
[2022.09.27-19.49.37:754][  0]LogDerivedDataCache: Unable to find inner node EnterprisePak for hierarchy Hierarchy.
[2022.09.27-19.49.37:762][  0]LogDerivedDataCache: Speed tests for C:/Users/ROG2/AppData/Local/UnrealEngine/Common/DerivedDataCache took 0.01 seconds
[2022.09.27-19.49.37:762][  0]LogDerivedDataCache: Display: Performance to C:/Users/ROG2/AppData/Local/UnrealEngine/Common/DerivedDataCache: Latency=0.05ms. RandomReadSpeed=792.64MBs, RandomWriteSpeed=142.73MBs. Assigned SpeedClass 'Local'
[2022.09.27-19.49.37:763][  0]LogDerivedDataCache: Using Local data cache path C:/Users/ROG2/AppData/Local/UnrealEngine/Common/DerivedDataCache: Writable
[2022.09.27-19.49.37:764][  0]LogDerivedDataCache: Shared data cache path not found in *engine.ini, will not use an Shared cache.
[2022.09.27-19.49.37:764][  0]LogDerivedDataCache: Unable to find inner node Shared for hierarchy Hierarchy.
[2022.09.27-19.49.37:773][  0]LogVirtualization: VirtualizationSystem name found in ini file: None
[2022.09.27-19.49.37:773][  0]LogVirtualization: FNullVirtualizationSystem mounted, virtualization will be disabled
[2022.09.27-19.49.37:774][  0]LogShaderCompilers: Guid format shader working directory is -15 characters bigger than the processId version (C:/Users/ROG2/OneDrive/Documents/Unreal Projects/MyProject3/Intermediate/Shaders/WorkingDirectory/11616/).
[2022.09.27-19.49.37:774][  0]LogShaderCompilers: Cleaned the shader compiler working directory 'C:/Users/ROG2/AppData/Local/Temp/UnrealShaderWorkingDir/3A4D9E8A4E3716EAF8D8BE90F404CEE2/'.
[2022.09.27-19.49.37:774][  0]LogXGEController: Cannot use XGE Controller as Incredibuild is not installed on this machine.
[2022.09.27-19.49.37:774][  0]LogShaderCompilers: Display: Using Local Shader Compiler with 5 workers.
[2022.09.27-19.49.39:477][  0]LogSlate: Using FreeType 2.10.0
[2022.09.27-19.49.39:477][  0]LogSlate: SlateFontServices - WITH_FREETYPE: 1, WITH_HARFBUZZ: 1
[2022.09.27-19.49.39:523][  0]LogAssetRegistry: FAssetRegistry took 0.0163 seconds to start up
[2022.09.27-19.49.39:529][  0]LogEditorDomain: Display: EditorDomain is Disabled
[2022.09.27-19.49.39:771][  0]LogSerialization: UsePackageTrailer: 'false'
[2022.09.27-19.49.39:772][  0]LogTexture: Display: Texture Encode Speed: FinalIfAvailable (editor).
[2022.09.27-19.49.40:134][  0]LogInit: Selected Device Profile: [WindowsEditor]
[2022.09.27-19.49.40:134][  0]LogDeviceProfileManager: Active device profile: [000007749DCFE8C0][0000077494BE5000 50] WindowsEditor
[2022.09.27-19.49.40:134][  0]LogDeviceProfileManager: Profiles: [000007749DCFE380][0000077494BEA000 50] Windows, [000007749DCFE8C0][0000077494BE5000 50] WindowsEditor, [000007749DCFC5C0][0000077494BE2800 50] WindowsServer, [000007749DCFB980][0000077494A6A000 50] WindowsClient, [000007749DCFB0C0][0000077494BE7800 50] IOS, [000007749DCFDE40][000007749E1D0000 50] iPadAir2, [000007749DCFEE00][000007749E1D7800 50] IPadPro, [000007749DCFF180][000007749E1D5000 50] iPadAir3, [000007749DCFC940][000007749E1DA000 50] iPadAir4, [000007749DCF9F40][000007749E1DC800 50] iPadMini4, [000007749DCFBD00][0000077482725000 50] iPadMini5, [000007749DCFDC80][000007749E1E0000 50] iPadMini6, [000007749E241880][000007749E1EA000 50] iPhone6S, [000007749E241C00][000007749E1E7800 50] iPhone7, [000007749E241DC0][000007749E1E5000 50] iPodTouch7, [000007749E242680][000007749E1EC800 50] iPhone6SPlus, [000007749E242A00][000007749E1D2800 50] iPhone7Plus, [000007749E2424C0][000007749E1F0000 50] iPhoneSE, [000007749E242300][000007749E1F5000 50] iPhone8, [000007749E240FC0][000007749E1F7800 50] iPhone8Plus, [000007749E240380][000007749E1FA000 50] iPhoneX, [000007749E240700][000007749E1FC800 50] iPhoneXS, [000007749E240A80][000007749E1E2800 50] iPhoneXSMax, [000007749E241A40][000007749E200000 50] iPhoneXR, [000007749E242BC0][000007749E205000 50] iPhone11, [000007749E240E00][000007749E207800 50] iPhone11Pro, [000007749E242D80][000007749E20A000 50] iPhone11ProMax, [000007749E243480][000007749E20C800 50] iPhoneSE2, [000007749E243800][000007749E1F2800 50] iPhone12Mini, [000007749E241F80][000007749E210000 50] iPhone12, [000007749E242F40][000007749E215000 50] iPhone12Pro, [000007749E243D40][000007749E217800 50] iPhone12ProMax, [000007749E2401C0][000007749E21A000 50] iPhone13Mini, [000007749E2416C0][000007749E21C800 50] iPhone13, [000007749E2408C0][000007749E202800 50] iPhone13Pro, [000007749E241340][000007749E220000 50] iPhone13ProMax, [000007749E243B80][000007749E225000 50] iPadPro105, [000007749E244980][000007749E227800 50] iPadPro129, [000007749E241180][000007749E22A000 50] iPadPro97, [000007749E243F00][000007749E22C800 50] iPadPro2_129, [000007749E241500][000007749E212800 50] iPad5, [000007749E242140][000007749E230000 50] iPad6, [000007749E242840][000007749E235000 50] iPad7, [000007749E243100][000007749E237800 50] iPad8, [000007749E244440][000007749E23A000 50] iPad9, [000007749E244D00][000007749E23C800 50] iPadPro11, [000007749E245940][000007749E222800 50] iPadPro2_11, [000007749E2439C0][000007749E250000 50] iPadPro3_11, [000007749E243640][000007749E255000 50] iPadPro3_129, [000007749E240000][000007749E257800 50] iPadPro4_129, [000007749E244EC0][000007749E25A000 50] iPadPro5_129, [000007749E245400][000007749E25C800 50] AppleTV, [000007749E245CC0][000007749E232800 50] AppleTV4K, [000007749E244600][000007749E260000 50] TVOS, [000007749E249140][000007749E267800 50] Mac, [000007749E2494C0][000007749E265000 50] MacEditor, [000007749E247540][000007749E26A000 50] MacClient, [000007749E2455C0][000007749E26C800 50] MacServer, [000007749E246900][000007749E2A0000 50] Linux, [000007749E240540][000007749E2A2800 50] LinuxEditor, [000007749E245780][000007749E2A7800 50] LinuxArm64Editor, [000007749E249680][000007749E2AA000 50] LinuxArm64, [000007749E248880][000007749E2AC800 50] LinuxClient, [000007749E2486C0][000007749E252800 50] LinuxArm64Client, [000007749E248F80][000007749E2A5000 50] LinuxServer, [000007749E248180][000007749E270000 50] LinuxArm64Server, [000007749E246200][000007749E275000 50] Android, [000007749E2478C0][000007749E277800 50] Android_Preview_OpenGL, [000007749E249840][000007749E27A000 50] Android_Preview_Vulkan, [000007749E248C00][000007749E27C800 50] Android_Low, [000007749E249BC0][000007749E262800 50] Android_Mid, [000007749E2440C0][000007749E280000 50] Android_High, [000007749E245B00][000007749E285000 50] Android_Default, [000007749E240C40][000007749E287800 50] Android_Adreno4xx, [000007749E246E40][000007749E28A000 50] Android_Adreno5xx_Low, [000007749E247C40][000007749E28C800 50] Android_Adreno5xx, [000007749E246AC0][000007749E272800 50] Android_Adreno6xx, [000007749E245E80][000007749E290000 50] Android_Adreno6xx_Vulkan, [000007749E244B40][000007749E295000 50] Android_Adreno7xx, [000007749E246740][000007749E297800 50] Android_Adreno7xx_Vulkan, [000007749E247380][000007749E29A000 50] Android_Mali_T6xx, [000007749E248DC0][000007749E29C800 50] Android_Mali_T7xx, [000007749E247700][000007749E282800 50] Android_Mali_T8xx, [000007749E247000][000007749E2B0000 50] Android_Mali_G71, [000007749E244280][000007749E2B5000 50] Android_Mali_G72, [000007749E248500][000007749E2B7800 50] Android_Mali_G72_Vulkan, [000007749E248340][000007749E2BA000 50] Android_Mali_G76, [000007749E246040][000007749E2BC800 50] Android_Mali_G76_Vulkan, [000007749E2447C0][000007749E292800 50] Android_Mali_G77, [000007749E245080][000007749E2C0000 50] Android_Mali_G77_Vulkan, [000007749E248A40][000007749E2C5000 50] Android_Mali_G78, [000007749E249300][000007749E2C7800 50] Android_Mali_G78_Vulkan, [000007749E24A800][000007749E2CA000 50] Android_Mali_G710, [000007749E245240][000007749E2CC800 50] Android_Mali_G710_Vulkan, [000007749E249D80][000007749E2B2800 50] Android_Xclipse_920, [000007749E2463C0][000007749E2D0000 50] Android_Xclipse_920_Vulkan, [000007749E2432C0][000007749E2D5000 50] Android_Vulkan_SM5, [000007749E2471C0][000007749E2D7800 50] Android_PowerVR_G6xxx, [000007749E249A00][000007749E2DA000 50] Android_PowerVR_GT7xxx, [000007749E24A2C0][000007749E2DC800 50] Android_PowerVR_GE8xxx, [000007749E246580][000007749E2C2800 50] Android_PowerVR_GM9xxx, [000007749E246C80][000007749E2E0000 50] Android_PowerVR_GM9xxx_Vulkan, [000007749E24AD40][000007749E2E5000 50] Android_TegraK1, [000007749E247A80][000007749E2E7800 50] Android_Unknown_Vulkan, [000007749E24B600][000007749E2EA000 50] Oculus_Quest, [000007749E24B980][000007749E2EC800 50] Oculus_Quest2, [000007749E24A480][000007749E2D2800 50] HoloLens, 
[2022.09.27-19.49.40:134][  0]LogCsvProfiler: Display: Metadata set : deviceprofile="WindowsEditor"
[2022.09.27-19.49.40:161][  0]LogTexture: Display: Oodle Texture Encode Speed settings: Fast: RDO Off Lambda=0, Effort=Normal Final: RDO Off Lambda=0, Effort=Normal
[2022.09.27-19.49.40:389][  0]LogMeshReduction: Using QuadricMeshReduction for automatic static mesh reduction
[2022.09.27-19.49.40:389][  0]LogMeshReduction: Using SimplygonMeshReduction for automatic skeletal mesh reduction
[2022.09.27-19.49.40:389][  0]LogMeshReduction: Using ProxyLODMeshReduction for automatic mesh merging
[2022.09.27-19.49.40:389][  0]LogMeshReduction: No distributed automatic mesh merging module available
[2022.09.27-19.49.40:389][  0]LogMeshMerging: No distributed automatic mesh merging module available
[2022.09.27-19.49.40:407][  0]LogNetVersion: MyProject3 1.0.0, NetCL: 19505902, EngineNetVer: 23, GameNetVer: 0 (Checksum: 754842639)
[2022.09.27-19.49.40:556][  0]LogSlate: Border
[2022.09.27-19.49.40:556][  0]LogSlate: BreadcrumbButton
[2022.09.27-19.49.40:556][  0]LogSlate: Default
[2022.09.27-19.49.40:556][  0]LogSlate: Icons.Save
[2022.09.27-19.49.40:556][  0]LogSlate: Icons.Toolbar.Settings
[2022.09.27-19.49.40:556][  0]LogSlate: ListView
[2022.09.27-19.49.40:556][  0]LogSlate: SoftwareCursor_CardinalCross
[2022.09.27-19.49.40:556][  0]LogSlate: SoftwareCursor_Grab
[2022.09.27-19.49.40:556][  0]LogSlate: TableView.DarkRow
[2022.09.27-19.49.40:556][  0]LogSlate: TableView.Row
[2022.09.27-19.49.40:556][  0]LogSlate: TreeView
[2022.09.27-19.49.40:771][  0]SourceControl: Source control is disabled
[2022.09.27-19.49.40:807][  0]SourceControl: Source control is disabled
[2022.09.27-19.49.40:807][  0]SourceControl: Source control is disabled
[2022.09.27-19.49.40:956][  0]LogUObjectArray: 20557 objects as part of root set at end of initial load.
[2022.09.27-19.49.40:956][  0]LogUObjectAllocator: 5584256 out of 0 bytes used by permanent object pool.
[2022.09.27-19.49.40:956][  0]LogUObjectArray: CloseDisregardForGC: 0/0 objects in disregard for GC pool
[2022.09.27-19.49.41:363][  0]LogNiagaraDebuggerClient: Niagara Debugger Client Initialized | Session: 09A319944E512300AFD56082F3BFB967 | Instance: 55087B994F0D7B6DA60264A12A0EF1B3 (DESKTOP-MRNAUKL-11616).
[2022.09.27-19.49.41:420][  0]LogPython: Using Python 3.9.7
[2022.09.27-19.49.42:459][  0]LogTcpMessaging: Initializing TcpMessaging bridge
[2022.09.27-19.49.42:466][  0]LogUdpMessaging: Initializing bridge on interface 0.0.0.0:0 to multicast group 230.0.0.1:6666.
[2022.09.27-19.49.43:073][  0]SourceControl: Source control is disabled
[2022.09.27-19.49.43:076][  0]SourceControl: Source control is disabled
[2022.09.27-19.49.43:084][  0]SourceControl: Source control is disabled
[2022.09.27-19.49.43:094][  0]LogUProjectInfo: Found projects:
[2022.09.27-19.49.43:095][  0]LogVSAccessor: Display: Unable to create Visual Studio setup instance: 80040154
[2022.09.27-19.49.43:096][  0]LogVSAccessor: Display: Unable to create Visual Studio setup instance: 80040154
[2022.09.27-19.49.43:096][  0]LogVSAccessor: Display: Unable to create Visual Studio setup instance: 80040154
[2022.09.27-19.49.43:121][  0]LogOpenImageDenoise: OIDN starting up
[2022.09.27-19.49.43:173][  0]LogAndroidPermission: UAndroidPermissionCallbackProxy::GetInstance
[2022.09.27-19.49.43:200][  0]LogAudioCaptureCore: Display: No Audio Capture implementations found. Audio input will be silent.
[2022.09.27-19.49.43:200][  0]LogAudioCaptureCore: Display: No Audio Capture implementations found. Audio input will be silent.
[2022.09.27-19.49.43:313][  0]LogCollectionManager: Loaded 0 collections in 0.001102 seconds
[2022.09.27-19.49.43:409][  0]LogFileCache: Scanning file cache for directory 'C:/Users/ROG2/OneDrive/Documents/Unreal Projects/MyProject3/Saved/Collections/' took 0.00s
[2022.09.27-19.49.43:409][  0]LogFileCache: Scanning file cache for directory 'C:/Users/ROG2/OneDrive/Documents/Unreal Projects/MyProject3/Content/Developers/ROG2/Collections/' took 0.00s
[2022.09.27-19.49.43:409][  0]LogFileCache: Scanning file cache for directory 'C:/Users/ROG2/OneDrive/Documents/Unreal Projects/MyProject3/Content/Collections/' took 0.00s
[2022.09.27-19.49.43:794][  0]LogEngine: Initializing Engine...
[2022.09.27-19.49.43:812][  0]LogStylusInput: Initializing StylusInput subsystem.
[2022.09.27-19.49.43:844][  0]LogStats: UGameplayTagsManager::InitializeManager -  0.000 s
[2022.09.27-19.49.44:158][  0]LogInit: Initializing FReadOnlyCVARCache
[2022.09.27-19.49.44:158][  0]LogSubsystemCollection: Failed to initialize subsystem dependency (WorldPartitionSubsystem)
[2022.09.27-19.49.44:174][  0]LogChaos: FPhysicsSolverBase::AsyncDt:-1.000000
[2022.09.27-19.49.44:213][  0]LogAIModule: Creating AISystem for world Untitled
[2022.09.27-19.49.44:214][  0]LogAudio: Display: Initializing Audio Device Manager...
[2022.09.27-19.49.44:242][  0]LogAudio: Display: Loading Default Audio Settings Objects...
[2022.09.27-19.49.44:243][  0]LogAudio: Display: No default SoundConcurrencyObject specified (or failed to load).
[2022.09.27-19.49.44:243][  0]LogAudio: Display: Registering Engine Module Parameter Interfaces...
[2022.09.27-19.49.44:244][  0]LogAudio: Display: Audio Device Manager Initialized
[2022.09.27-19.49.44:244][  0]LogAudio: Display: Creating Audio Device:                 Id: 1, Scope: Shared, Realtime: True
[2022.09.27-19.49.44:244][  0]LogAudioMixer: Display: Audio Mixer Platform Settings:
[2022.09.27-19.49.44:244][  0]LogAudioMixer: Display: 	Sample Rate:						  48000
[2022.09.27-19.49.44:244][  0]LogAudioMixer: Display: 	Callback Buffer Frame Size Requested: 1024
[2022.09.27-19.49.44:244][  0]LogAudioMixer: Display: 	Callback Buffer Frame Size To Use:	  1024
[2022.09.27-19.49.44:244][  0]LogAudioMixer: Display: 	Number of buffers to queue:			  2
[2022.09.27-19.49.44:244][  0]LogAudioMixer: Display: 	Max Channels (voices):				  0
[2022.09.27-19.49.44:244][  0]LogAudioMixer: Display: 	Number of Async Source Workers:		  0
[2022.09.27-19.49.44:244][  0]LogAudio: Display: AudioDevice MaxSources: 32
[2022.09.27-19.49.44:244][  0]LogAudio: Display: Audio Spatialization Plugin: None (built-in).
[2022.09.27-19.49.44:244][  0]LogAudio: Display: Audio Reverb Plugin: None (built-in).
[2022.09.27-19.49.44:244][  0]LogAudio: Display: Audio Occlusion Plugin: None (built-in).
[2022.09.27-19.49.44:250][  0]LogAudioMixer: Display: Initializing audio mixer using platform API: 'XAudio2'
[2022.09.27-19.49.44:296][  0]LogAudioMixer: Display: Using Audio Hardware Device Headphones (High Definition Audio Device)
[2022.09.27-19.49.44:296][  0]LogAudioMixer: Display: Initializing Sound Submixes...
[2022.09.27-19.49.44:298][  0]LogAudioMixer: Display: Creating Master Submix 'MasterSubmixDefault'
[2022.09.27-19.49.44:298][  0]LogAudioMixer: Display: Creating Master Submix 'MasterReverbSubmixDefault'
[2022.09.27-19.49.44:299][  0]LogAudioMixer: FMixerPlatformXAudio2::StartAudioStream() called. InstanceID=1
[2022.09.27-19.49.44:299][  0]LogAudioMixer: Display: Output buffers initialized: Frames=1024, Channels=2, Samples=2048, InstanceID=1
[2022.09.27-19.49.44:300][  0]LogAudioMixer: Display: Starting AudioMixerPlatformInterface::RunInternal(), InstanceID=1
[2022.09.27-19.49.44:300][  0]LogAudioMixer: Display: FMixerPlatformXAudio2::SubmitBuffer() called for the first time. InstanceID=1
[2022.09.27-19.49.44:300][  0]LogInit: FAudioDevice initialized.
[2022.09.27-19.49.44:300][  0]LogAudio: Display: Audio Device (ID: 1) registered with world 'Untitled'.
[2022.09.27-19.49.44:301][  0]LogNetVersion: Set ProjectVersion to 1.0.0.0. Version Checksum will be recalculated on next use.
[2022.09.27-19.49.44:301][  0]LogInit: Texture streaming: Enabled
[2022.09.27-19.49.44:345][  0]LogAnalytics: Display: [UEEditor.Rocket.Release] APIServer = https://datarouter.ol.epicgames.com/. AppVersion = 5.0.3-20979098+++UE5+Release-5.0
[2022.09.27-19.49.44:357][  0]LogEngineSessionManager: EngineSessionManager initialized
[2022.09.27-19.49.44:403][  0]LogCsvProfiler: Display: Metadata set : largeworldcoordinates="1"
[2022.09.27-19.49.44:413][  0]LogLiveCoding: Display: Starting LiveCoding
[2022.09.27-19.49.44:413][  0]LogLiveCoding: Display: LiveCodingConsole Arguments: UnrealEditor Win64 Development
[2022.09.27-19.49.48:455][  0]LogLiveCoding: Display: First instance in process group "UE_MyProject3_0x00b17ca1", spawning console
[2022.09.27-19.49.48:455][  0]LogLiveCoding: Display: Waiting for server
[2022.09.27-19.49.48:455][  0]LogLiveCoding: Display: Successfully initialized, removing startup thread
[2022.09.27-19.49.48:499][  0]LogInit: Transaction tracking system initialized
[2022.09.27-19.49.48:612][  0]BlueprintLog: New page: Editor Load
[2022.09.27-19.49.48:884][  0]LocalizationService: Localization service is disabled
[2022.09.27-19.49.48:953][  0]TimingProfiler: Initialize
[2022.09.27-19.49.48:953][  0]TimingProfiler: OnSessionChanged
[2022.09.27-19.49.48:953][  0]LoadingProfiler: Initialize
[2022.09.27-19.49.48:953][  0]LoadingProfiler: OnSessionChanged
[2022.09.27-19.49.48:953][  0]NetworkingProfiler: Initialize
[2022.09.27-19.49.48:953][  0]NetworkingProfiler: OnSessionChanged
[2022.09.27-19.49.48:953][  0]MemoryProfiler: Initialize
[2022.09.27-19.49.48:953][  0]MemoryProfiler: OnSessionChanged
[2022.09.27-19.49.49:203][  0]LogVSAccessor: Display: Unable to create Visual Studio setup instance: 80040154
[2022.09.27-19.49.49:204][  0]LogVSAccessor: Display: Unable to create Visual Studio setup instance: 80040154
[2022.09.27-19.49.49:204][  0]LogVSAccessor: Display: Unable to create Visual Studio setup instance: 80040154
[2022.09.27-19.49.49:975][  0]LogFileCache: Scanning file cache for directory 'C:/Users/ROG2/OneDrive/Documents/Unreal Projects/MyProject3/Content/' took 0.00s
[2022.09.27-19.49.49:975][  0]LogLevelSequenceEditor: LevelSequenceEditor subsystem initialized.
[2022.09.27-19.49.50:173][  0]LogInit: Display: Engine is initialized. Leaving FEngineLoop::Init()
[2022.09.27-19.49.50:175][  0]SourceControl: Source control is disabled
[2022.09.27-19.49.50:175][  0]LogUnrealEdMisc: Loading editor; pre map load, took 15.779
[2022.09.27-19.49.50:175][  0]Cmd: MAP LOAD FILE="../../../Engine/Content/Maps/Templates/OpenWorld.umap" TEMPLATE=1 SHOWPROGRESS=1 FEATURELEVEL=3
[2022.09.27-19.49.50:175][  0]LightingResults: New page: Lighting Build
[2022.09.27-19.49.50:185][  0]LogWorld: UWorld::CleanupWorld for Untitled, bSessionEnded=true, bCleanupResources=true
[2022.09.27-19.49.50:185][  0]LogSlate: InvalidateAllWidgets triggered.  All widgets were invalidated
[2022.09.27-19.49.50:185][  0]MapCheck: New page: Map Check
[2022.09.27-19.49.50:185][  0]LightingResults: New page: Lighting Build
[2022.09.27-19.49.50:195][  0]LogAudio: Display: Audio Device unregistered from world 'None'.
[2022.09.27-19.49.50:198][  0]LogUObjectHash: Compacting FUObjectHashTables data took   0.54ms
[2022.09.27-19.49.50:247][  0]LogAudio: Display: Audio Device (ID: 1) registered with world 'Untitled_1'.
[2022.09.27-19.49.50:256][  0]LogChaos: FPhysicsSolverBase::AsyncDt:-1.000000
[2022.09.27-19.49.50:257][  0]LogAIModule: Creating AISystem for world Untitled_1
[2022.09.27-19.49.50:257][  0]LogWorldPartition: Display: WorldPartition initialize started...
[2022.09.27-19.49.50:257][  0]LogWorldPartition: UWorldPartition::Initialize(IsEditor=1, IsGame=0, IsCooking=0)
[2022.09.27-19.49.50:638][  0]LogWorldPartition: Display: WorldPartition initialize took 381 ms
[2022.09.27-19.49.50:978][  0]LogEditorServer: Finished looking for orphan Actors (0.000 secs)
[2022.09.27-19.49.50:989][  0]LogUObjectHash: Compacting FUObjectHashTables data took   0.72ms
[2022.09.27-19.49.50:989][  0]Cmd: MAP CHECKDEP NOCLEARLOG
[2022.09.27-19.49.51:010][  0]MapCheck: Map check complete: 0 Error(s), 0 Warning(s), took 20,889ms to complete.
[2022.09.27-19.49.51:010][  0]LogFileHelpers: Loading map 'OpenWorld' took 0.835
[2022.09.27-19.49.51:024][  0]LogUnrealEdMisc: Total Editor Startup Time, took 16.628
[2022.09.27-19.49.51:024][  0]LogShaderCompilers: Display: ================================================
[2022.09.27-19.49.51:024][  0]LogShaderCompilers: Display: === FShaderJobCache stats ===
[2022.09.27-19.49.51:024][  0]LogShaderCompilers: Display: Total job queries 0, among them cache hits 0 (0.00%)
[2022.09.27-19.49.51:024][  0]LogShaderCompilers: Display: Tracking 0 distinct input hashes that result in 0 distinct outputs (0.00%)
[2022.09.27-19.49.51:024][  0]LogShaderCompilers: Display: RAM used: 0.00 MB (0.00 GB) of 819.20 MB (0.80 GB) budget. Usage: 0.00%
[2022.09.27-19.49.51:024][  0]LogShaderCompilers: Display: === Shader Compilation stats ===
[2022.09.27-19.49.51:024][  0]LogShaderCompilers: Display: Shaders Compiled: 0
[2022.09.27-19.49.51:024][  0]LogShaderCompilers: Display: Jobs assigned 0, completed 0 (0.00%)
[2022.09.27-19.49.51:024][  0]LogShaderCompilers: Display: Time at least one job was in flight (either pending or executed): 0.00 s
[2022.09.27-19.49.51:024][  0]LogShaderCompilers: Display: ================================================
[2022.09.27-19.49.51:171][  0]LogSlate: The tab "TopLeftModeTab" attempted to spawn in layout 'LevelEditor_Layout_v1.8' but failed for some reason. It will not be displayed.
[2022.09.27-19.49.51:210][  0]LogSlate: Updating window title bar state: overlay mode, drag disabled, window buttons hidden, title bar hidden
[2022.09.27-19.49.51:221][  0]LogSlate: Updating window title bar state: overlay mode, drag disabled, window buttons hidden, title bar hidden
[2022.09.27-19.49.51:230][  0]LogSlate: Updating window title bar state: overlay mode, drag disabled, window buttons hidden, title bar hidden
[2022.09.27-19.49.51:238][  0]LogSlate: Updating window title bar state: overlay mode, drag disabled, window buttons hidden, title bar hidden
[2022.09.27-19.49.51:556][  0]LogPakFile: Display: Mounted Pak file 'E:/Новая папка2/UE_5.0/FeaturePacks/StarterContent.upack', mount point: 'root:/'
[2022.09.27-19.49.51:557][  0]LogPakFile: Display: Mount point: 'root:/' is not mounted to a valid Root Path yet, assets in this pak file may not be accessible until a corresponding UFS Mount Point is added through FPackageName::RegisterMountPoint.
[2022.09.27-19.49.51:570][  0]LogPakFile: Display: Mounted Pak file 'E:/Новая папка2/UE_5.0/FeaturePacks/TP_FirstPerson.upack', mount point: 'root:/'
[2022.09.27-19.49.51:570][  0]LogPakFile: Display: Mount point: 'root:/' is not mounted to a valid Root Path yet, assets in this pak file may not be accessible until a corresponding UFS Mount Point is added through FPackageName::RegisterMountPoint.
[2022.09.27-19.49.51:583][  0]LogPakFile: Display: Mounted Pak file 'E:/Новая папка2/UE_5.0/FeaturePacks/TP_FirstPersonBP.upack', mount point: 'root:/'
[2022.09.27-19.49.51:583][  0]LogPakFile: Display: Mount point: 'root:/' is not mounted to a valid Root Path yet, assets in this pak file may not be accessible until a corresponding UFS Mount Point is added through FPackageName::RegisterMountPoint.
[2022.09.27-19.49.51:594][  0]LogPakFile: Display: Mounted Pak file 'E:/Новая папка2/UE_5.0/FeaturePacks/TP_HandheldARBP.upack', mount point: 'root:/'
[2022.09.27-19.49.51:594][  0]LogPakFile: Display: Mount point: 'root:/' is not mounted to a valid Root Path yet, assets in this pak file may not be accessible until a corresponding UFS Mount Point is added through FPackageName::RegisterMountPoint.
[2022.09.27-19.49.51:622][  0]LogPakFile: Display: Mounted Pak file 'E:/Новая папка2/UE_5.0/FeaturePacks/TP_ThirdPerson.upack', mount point: 'root:/'
[2022.09.27-19.49.51:622][  0]LogPakFile: Display: Mount point: 'root:/' is not mounted to a valid Root Path yet, assets in this pak file may not be accessible until a corresponding UFS Mount Point is added through FPackageName::RegisterMountPoint.
[2022.09.27-19.49.51:633][  0]LogPakFile: Display: Mounted Pak file 'E:/Новая папка2/UE_5.0/FeaturePacks/TP_ThirdPersonBP.upack', mount point: 'root:/'
[2022.09.27-19.49.51:634][  0]LogPakFile: Display: Mount point: 'root:/' is not mounted to a valid Root Path yet, assets in this pak file may not be accessible until a corresponding UFS Mount Point is added through FPackageName::RegisterMountPoint.
[2022.09.27-19.49.51:644][  0]LogPakFile: Display: Mounted Pak file 'E:/Новая папка2/UE_5.0/FeaturePacks/TP_TopDown.upack', mount point: 'root:/'
[2022.09.27-19.49.51:644][  0]LogPakFile: Display: Mount point: 'root:/' is not mounted to a valid Root Path yet, assets in this pak file may not be accessible until a corresponding UFS Mount Point is added through FPackageName::RegisterMountPoint.
[2022.09.27-19.49.51:656][  0]LogPakFile: Display: Mounted Pak file 'E:/Новая папка2/UE_5.0/FeaturePacks/TP_TopDownBP.upack', mount point: 'root:/'
[2022.09.27-19.49.51:656][  0]LogPakFile: Display: Mount point: 'root:/' is not mounted to a valid Root Path yet, assets in this pak file may not be accessible until a corresponding UFS Mount Point is added through FPackageName::RegisterMountPoint.
[2022.09.27-19.49.51:668][  0]LogPakFile: Display: Mounted Pak file 'E:/Новая папка2/UE_5.0/FeaturePacks/TP_VehicleAdvBP.upack', mount point: 'root:/'
[2022.09.27-19.49.51:668][  0]LogPakFile: Display: Mount point: 'root:/' is not mounted to a valid Root Path yet, assets in this pak file may not be accessible until a corresponding UFS Mount Point is added through FPackageName::RegisterMountPoint.
[2022.09.27-19.49.51:677][  0]LogPakFile: Display: Mounted Pak file 'E:/Новая папка2/UE_5.0/FeaturePacks/TP_VirtualRealityBP.upack', mount point: 'root:/'
[2022.09.27-19.49.51:677][  0]LogPakFile: Display: Mount point: 'root:/' is not mounted to a valid Root Path yet, assets in this pak file may not be accessible until a corresponding UFS Mount Point is added through FPackageName::RegisterMountPoint.
[2022.09.27-19.49.51:679][  0]LogFeaturePack: Error: Error in Feature pack E:/Новая папка2/UE_5.0/FeaturePacks/TP_VirtualRealityBP.upack. Failed to parse manifest: Invalid Json Token. Line: 43 Ch: 4
[2022.09.27-19.49.52:297][  0]LogSlate: Took 0.000199 seconds to synchronously load lazily loaded font '../../../Engine/Content/Slate/Fonts/Roboto-Regular.ttf' (155K)
[2022.09.27-19.49.52:313][  0]LogSlate: Took 0.006409 seconds to synchronously load lazily loaded font '../../../Engine/Content/Slate/Fonts/Roboto-Italic.ttf' (157K)
[2022.09.27-19.49.52:322][  0]LogSlate: Took 0.008603 seconds to synchronously load lazily loaded font '../../../Engine/Content/Slate/Fonts/DroidSansMono.ttf' (77K)
[2022.09.27-19.49.52:357][  0]LogViewport: Scene viewport resized to 1458x858, mode Windowed.
[2022.09.27-19.49.53:071][  0]LogStall: Startup...
[2022.09.27-19.49.53:073][  0]LogStall: Startup complete.
[2022.09.27-19.49.53:138][  0]LogLoad: (Engine Initialization) Total time: 18.74 seconds
[2022.09.27-19.49.53:138][  0]LogLoad: (Engine Initialization) Total Blueprint compile time: 0.00 seconds
[2022.09.27-19.49.53:287][  0]LogAssetRegistry: Asset discovery search completed in 13.7651 seconds
[2022.09.27-19.49.53:293][  0]LogCollectionManager: Fixed up redirectors for 0 collections in 0.000004 seconds (updated 0 objects)
[2022.09.27-19.49.53:296][  0]LogContentStreaming: Texture pool size now 400 MB
[2022.09.27-19.49.53:373][  0]LogSlate: Took 0.000112 seconds to synchronously load lazily loaded font '../../../Engine/Content/Slate/Fonts/Roboto-Bold.ttf' (160K)
[2022.09.27-19.49.54:009][  4]LogSlate: Took 0.000150 seconds to synchronously load lazily loaded font '../../../Engine/Content/Slate/Fonts/Roboto-Regular.ttf' (155K)
[2022.09.27-19.50.31:744][ 69]LogSlate: Took 0.006725 seconds to synchronously load lazily loaded font '../../../Engine/Content/Slate/Fonts/Roboto-Light.ttf' (167K)
[2022.09.27-19.50.32:572][110]LogUObjectHash: Compacting FUObjectHashTables data took   0.94ms
[2022.09.27-19.50.32:573][110]Cmd: MAP LOAD FILE="C:/Users/ROG2/OneDrive/Documents/Unreal Projects/MyProject3/Content/NewMap.umap" TEMPLATE=0 SHOWPROGRESS=1 FEATURELEVEL=3
[2022.09.27-19.50.32:574][110]LightingResults: New page: Lighting Build
[2022.09.27-19.50.32:574][110]LoadErrors: New page: Loading map: NewMap.umap
[2022.09.27-19.50.32:611][110]LogWorld: UWorld::CleanupWorld for Untitled_1, bSessionEnded=true, bCleanupResources=true
[2022.09.27-19.50.32:611][110]LogSlate: InvalidateAllWidgets triggered.  All widgets were invalidated
[2022.09.27-19.50.32:612][110]MapCheck: New page: Map Check
[2022.09.27-19.50.32:612][110]LightingResults: New page: Lighting Build
[2022.09.27-19.50.32:621][110]LogAudio: Display: Audio Device unregistered from world 'None'.
[2022.09.27-19.50.32:638][110]LogUObjectHash: Compacting FUObjectHashTables data took   0.77ms
[2022.09.27-19.50.32:754][110]LogAudio: Display: Audio Device (ID: 1) registered with world 'NewMap'.
[2022.09.27-19.50.32:754][110]LogSubsystemCollection: Failed to initialize subsystem dependency (WorldPartitionSubsystem)
[2022.09.27-19.50.32:754][110]LogChaos: FPhysicsSolverBase::AsyncDt:-1.000000
[2022.09.27-19.50.32:754][110]LogAIModule: Creating AISystem for world NewMap
[2022.09.27-19.50.32:843][110]LogEditorServer: Finished looking for orphan Actors (0.000 secs)
[2022.09.27-19.50.32:855][110]LogUObjectHash: Compacting FUObjectHashTables data took   0.58ms
[2022.09.27-19.50.32:863][110]Cmd: MAP CHECKDEP NOCLEARLOG
[2022.09.27-19.50.32:863][110]MapCheck: Map check complete: 0 Error(s), 0 Warning(s), took 0,174ms to complete.
[2022.09.27-19.50.32:863][110]LogFileHelpers: Loading map 'NewMap' took 0.290
[2022.09.27-19.50.32:864][110]LogSlate: Window 'Open Level' being destroyed
[2022.09.27-19.50.35:224][228]LogDebuggerCommands: Repeating last play command: Selected Viewport
[2022.09.27-19.50.35:232][228]LogPlayLevel: PlayLevel: No blueprints needed recompiling
[2022.09.27-19.50.35:233][228]PIE: New page: PIE session: NewMap (27 сент. 2022 г., 05:50:35)
[2022.09.27-19.50.35:237][228]LogOnline: OSS: Created online subsystem instance for: NULL
[2022.09.27-19.50.35:238][228]LogOnline: OSS: TryLoadSubsystemAndSetDefault: Loaded subsystem for module [NULL]
[2022.09.27-19.50.35:238][228]LogPlayLevel: Creating play world package: /Game/UEDPIE_0_NewMap
[2022.09.27-19.50.35:241][228]LogPlayLevel: PIE: StaticDuplicateObject took: (0.003102s)
[2022.09.27-19.50.35:242][228]LogPlayLevel: PIE: Created PIE world by copying editor world from /Game/NewMap.NewMap to /Game/UEDPIE_0_NewMap.NewMap (0.003744s)
[2022.09.27-19.50.35:242][228]LogSubsystemCollection: Failed to initialize subsystem dependency (WorldPartitionSubsystem)
[2022.09.27-19.50.35:242][228]LogChaos: FPhysicsSolverBase::AsyncDt:-1.000000
[2022.09.27-19.50.35:242][228]LogAIModule: Creating AISystem for world NewMap
[2022.09.27-19.50.35:242][228]LogPlayLevel: PIE: World Init took: (0.000759s)
[2022.09.27-19.50.35:252][228]LogUObjectHash: Compacting FUObjectHashTables data took   0.56ms
[2022.09.27-19.50.35:253][228]LogAudio: Display: Creating Audio Device:                 Id: 2, Scope: Unique, Realtime: True
[2022.09.27-19.50.35:253][228]LogAudioMixer: Display: Audio Mixer Platform Settings:
[2022.09.27-19.50.35:253][228]LogAudioMixer: Display: 	Sample Rate:						  48000
[2022.09.27-19.50.35:253][228]LogAudioMixer: Display: 	Callback Buffer Frame Size Requested: 1024
[2022.09.27-19.50.35:253][228]LogAudioMixer: Display: 	Callback Buffer Frame Size To Use:	  1024
[2022.09.27-19.50.35:253][228]LogAudioMixer: Display: 	Number of buffers to queue:			  2
[2022.09.27-19.50.35:253][228]LogAudioMixer: Display: 	Max Channels (voices):				  0
[2022.09.27-19.50.35:253][228]LogAudioMixer: Display: 	Number of Async Source Workers:		  0
[2022.09.27-19.50.35:253][228]LogAudio: Display: AudioDevice MaxSources: 32
[2022.09.27-19.50.35:254][228]LogAudio: Display: Audio Spatialization Plugin: None (built-in).
[2022.09.27-19.50.35:254][228]LogAudio: Display: Audio Reverb Plugin: None (built-in).
[2022.09.27-19.50.35:254][228]LogAudio: Display: Audio Occlusion Plugin: None (built-in).
[2022.09.27-19.50.35:256][228]LogAudioMixer: Display: Initializing audio mixer using platform API: 'XAudio2'
[2022.09.27-19.50.35:277][228]LogAudioMixer: Display: Using Audio Hardware Device Headphones (High Definition Audio Device)
[2022.09.27-19.50.35:277][228]LogAudioMixer: Display: Initializing Sound Submixes...
[2022.09.27-19.50.35:277][228]LogAudioMixer: Display: Creating Master Submix 'MasterSubmixDefault'
[2022.09.27-19.50.35:277][228]LogAudioMixer: Display: Creating Master Submix 'MasterReverbSubmixDefault'
[2022.09.27-19.50.35:277][228]LogAudioMixer: FMixerPlatformXAudio2::StartAudioStream() called. InstanceID=2
[2022.09.27-19.50.35:277][228]LogAudioMixer: Display: Output buffers initialized: Frames=1024, Channels=2, Samples=2048, InstanceID=2
[2022.09.27-19.50.35:279][228]LogAudioMixer: Display: Starting AudioMixerPlatformInterface::RunInternal(), InstanceID=2
[2022.09.27-19.50.35:279][228]LogAudioMixer: Display: FMixerPlatformXAudio2::SubmitBuffer() called for the first time. InstanceID=2
[2022.09.27-19.50.35:279][228]LogInit: FAudioDevice initialized.
[2022.09.27-19.50.35:279][228]LogAudio: Display: Audio Device (ID: 2) registered with world 'NewMap'.
[2022.09.27-19.50.35:297][228]LogLoad: Game class is 'GameModeBase'
[2022.09.27-19.50.35:298][228]LogWorld: Bringing World /Game/UEDPIE_0_NewMap.NewMap up for play (max tick rate 0) at 2022.09.27-12.50.35
[2022.09.27-19.50.35:298][228]LogWorld: Bringing up level for play took: 0.001013
[2022.09.27-19.50.35:300][228]LogOnline: OSS: Created online subsystem instance for: :Context_1
[2022.09.27-19.50.35:333][228]PIE: Server logged in
[2022.09.27-19.50.35:334][228]PIE: Play in editor total start time 0,104 seconds.
[2022.09.27-19.50.46:547][995]LogSlate: Updating window title bar state: overlay mode, drag disabled, window buttons hidden, title bar hidden
[2022.09.27-19.50.46:547][995]LogWorld: BeginTearingDown for /Game/UEDPIE_0_NewMap
[2022.09.27-19.50.46:547][995]LogWorld: UWorld::CleanupWorld for NewMap, bSessionEnded=true, bCleanupResources=true
[2022.09.27-19.50.46:547][995]LogSlate: InvalidateAllWidgets triggered.  All widgets were invalidated
[2022.09.27-19.50.46:562][995]LogPlayLevel: Display: Shutting down PIE online subsystems
[2022.09.27-19.50.46:564][995]LogSlate: InvalidateAllWidgets triggered.  All widgets were invalidated
[2022.09.27-19.50.46:576][995]LogSlate: Updating window title bar state: overlay mode, drag disabled, window buttons hidden, title bar hidden
[2022.09.27-19.50.46:577][995]LogAudioMixer: FMixerPlatformXAudio2::StopAudioStream() called. InstanceID=2
[2022.09.27-19.50.46:579][995]LogAudioMixer: FMixerPlatformXAudio2::StopAudioStream() called. InstanceID=2
[2022.09.27-19.50.46:586][995]LogUObjectHash: Compacting FUObjectHashTables data took   0.75ms
[2022.09.27-19.50.46:608][996]LogPlayLevel: Display: Destroying online subsystem :Context_1
[2022.09.27-19.50.47:026][ 20]LogDebuggerCommands: Repeating last play command: Selected Viewport
[2022.09.27-19.50.47:036][ 20]LogPlayLevel: PlayLevel: No blueprints needed recompiling
[2022.09.27-19.50.47:036][ 20]PIE: New page: PIE session: NewMap (27 сент. 2022 г., 05:50:47)
[2022.09.27-19.50.47:036][ 20]LogPlayLevel: Creating play world package: /Game/UEDPIE_0_NewMap
[2022.09.27-19.50.47:040][ 20]LogPlayLevel: PIE: StaticDuplicateObject took: (0.004114s)
[2022.09.27-19.50.47:040][ 20]LogPlayLevel: PIE: Created PIE world by copying editor world from /Game/NewMap.NewMap to /Game/UEDPIE_0_NewMap.NewMap (0.004232s)
[2022.09.27-19.50.47:040][ 20]LogSubsystemCollection: Failed to initialize subsystem dependency (WorldPartitionSubsystem)
[2022.09.27-19.50.47:040][ 20]LogChaos: FPhysicsSolverBase::AsyncDt:-1.000000
[2022.09.27-19.50.47:041][ 20]LogAIModule: Creating AISystem for world NewMap
[2022.09.27-19.50.47:041][ 20]LogPlayLevel: PIE: World Init took: (0.001334s)
[2022.09.27-19.50.47:057][ 20]LogUObjectHash: Compacting FUObjectHashTables data took   0.95ms
[2022.09.27-19.50.47:057][ 20]LogAudio: Display: Creating Audio Device:                 Id: 3, Scope: Unique, Realtime: True
[2022.09.27-19.50.47:057][ 20]LogAudioMixer: Display: Audio Mixer Platform Settings:
[2022.09.27-19.50.47:057][ 20]LogAudioMixer: Display: 	Sample Rate:						  48000
[2022.09.27-19.50.47:057][ 20]LogAudioMixer: Display: 	Callback Buffer Frame Size Requested: 1024
[2022.09.27-19.50.47:057][ 20]LogAudioMixer: Display: 	Callback Buffer Frame Size To Use:	  1024
[2022.09.27-19.50.47:057][ 20]LogAudioMixer: Display: 	Number of buffers to queue:			  2
[2022.09.27-19.50.47:057][ 20]LogAudioMixer: Display: 	Max Channels (voices):				  0
[2022.09.27-19.50.47:057][ 20]LogAudioMixer: Display: 	Number of Async Source Workers:		  0
[2022.09.27-19.50.47:057][ 20]LogAudio: Display: AudioDevice MaxSources: 32
[2022.09.27-19.50.47:058][ 20]LogAudio: Display: Audio Spatialization Plugin: None (built-in).
[2022.09.27-19.50.47:058][ 20]LogAudio: Display: Audio Reverb Plugin: None (built-in).
[2022.09.27-19.50.47:058][ 20]LogAudio: Display: Audio Occlusion Plugin: None (built-in).
[2022.09.27-19.50.47:061][ 20]LogAudioMixer: Display: Initializing audio mixer using platform API: 'XAudio2'
[2022.09.27-19.50.47:088][ 20]LogAudioMixer: Display: Using Audio Hardware Device Headphones (High Definition Audio Device)
[2022.09.27-19.50.47:089][ 20]LogAudioMixer: Display: Initializing Sound Submixes...
[2022.09.27-19.50.47:090][ 20]LogAudioMixer: Display: Creating Master Submix 'MasterSubmixDefault'
[2022.09.27-19.50.47:090][ 20]LogAudioMixer: Display: Creating Master Submix 'MasterReverbSubmixDefault'
[2022.09.27-19.50.47:090][ 20]LogAudioMixer: FMixerPlatformXAudio2::StartAudioStream() called. InstanceID=3
[2022.09.27-19.50.47:090][ 20]LogAudioMixer: Display: Output buffers initialized: Frames=1024, Channels=2, Samples=2048, InstanceID=3
[2022.09.27-19.50.47:092][ 20]LogAudioMixer: Display: Starting AudioMixerPlatformInterface::RunInternal(), InstanceID=3
[2022.09.27-19.50.47:092][ 20]LogAudioMixer: Display: FMixerPlatformXAudio2::SubmitBuffer() called for the first time. InstanceID=3
[2022.09.27-19.50.47:092][ 20]LogInit: FAudioDevice initialized.
[2022.09.27-19.50.47:092][ 20]LogAudio: Display: Audio Device (ID: 3) registered with world 'NewMap'.
[2022.09.27-19.50.47:110][ 20]LogLoad: Game class is 'GameModeBase'
[2022.09.27-19.50.47:111][ 20]LogWorld: Bringing World /Game/UEDPIE_0_NewMap.NewMap up for play (max tick rate 0) at 2022.09.27-12.50.47
[2022.09.27-19.50.47:111][ 20]LogWorld: Bringing up level for play took: 0.001565
[2022.09.27-19.50.47:114][ 20]LogOnline: OSS: Created online subsystem instance for: :Context_2
[2022.09.27-19.50.47:116][ 20]PIE: Server logged in
[2022.09.27-19.50.47:117][ 20]PIE: Play in editor total start time 0,081 seconds.
[2022.09.27-19.50.50:715][239]LogSlate: Updating window title bar state: overlay mode, drag disabled, window buttons hidden, title bar hidden
[2022.09.27-19.50.50:715][239]LogWorld: BeginTearingDown for /Game/UEDPIE_0_NewMap
[2022.09.27-19.50.50:715][239]LogWorld: UWorld::CleanupWorld for NewMap, bSessionEnded=true, bCleanupResources=true
[2022.09.27-19.50.50:716][239]LogSlate: InvalidateAllWidgets triggered.  All widgets were invalidated
[2022.09.27-19.50.50:731][239]LogPlayLevel: Display: Shutting down PIE online subsystems
[2022.09.27-19.50.50:733][239]LogSlate: InvalidateAllWidgets triggered.  All widgets were invalidated
[2022.09.27-19.50.50:744][239]LogSlate: Updating window title bar state: overlay mode, drag disabled, window buttons hidden, title bar hidden
[2022.09.27-19.50.50:745][239]LogAudioMixer: FMixerPlatformXAudio2::StopAudioStream() called. InstanceID=3
[2022.09.27-19.50.50:747][239]LogAudioMixer: FMixerPlatformXAudio2::StopAudioStream() called. InstanceID=3
[2022.09.27-19.50.50:753][239]LogUObjectHash: Compacting FUObjectHashTables data took   0.60ms
[2022.09.27-19.50.50:802][243]LogPlayLevel: Display: Destroying online subsystem :Context_2
[2022.09.27-19.51.04:277][841]LogDebuggerCommands: Repeating last play command: Selected Viewport
[2022.09.27-19.51.04:283][841]LogPlayLevel: PlayLevel: No blueprints needed recompiling
[2022.09.27-19.51.04:283][841]PIE: New page: PIE session: NewMap (27 сент. 2022 г., 05:51:04)
[2022.09.27-19.51.04:283][841]LogPlayLevel: Creating play world package: /Game/UEDPIE_0_NewMap
[2022.09.27-19.51.04:286][841]LogPlayLevel: PIE: StaticDuplicateObject took: (0.002741s)
[2022.09.27-19.51.04:286][841]LogPlayLevel: PIE: Created PIE world by copying editor world from /Game/NewMap.NewMap to /Game/UEDPIE_0_NewMap.NewMap (0.002844s)
[2022.09.27-19.51.04:286][841]LogSubsystemCollection: Failed to initialize subsystem dependency (WorldPartitionSubsystem)
[2022.09.27-19.51.04:286][841]LogChaos: FPhysicsSolverBase::AsyncDt:-1.000000
[2022.09.27-19.51.04:287][841]LogAIModule: Creating AISystem for world NewMap
[2022.09.27-19.51.04:287][841]LogPlayLevel: PIE: World Init took: (0.001277s)
[2022.09.27-19.51.04:300][841]LogUObjectHash: Compacting FUObjectHashTables data took   0.68ms
[2022.09.27-19.51.04:301][841]LogAudio: Display: Creating Audio Device:                 Id: 4, Scope: Unique, Realtime: True
[2022.09.27-19.51.04:301][841]LogAudioMixer: Display: Audio Mixer Platform Settings:
[2022.09.27-19.51.04:301][841]LogAudioMixer: Display: 	Sample Rate:						  48000
[2022.09.27-19.51.04:301][841]LogAudioMixer: Display: 	Callback Buffer Frame Size Requested: 1024
[2022.09.27-19.51.04:301][841]LogAudioMixer: Display: 	Callback Buffer Frame Size To Use:	  1024
[2022.09.27-19.51.04:301][841]LogAudioMixer: Display: 	Number of buffers to queue:			  2
[2022.09.27-19.51.04:301][841]LogAudioMixer: Display: 	Max Channels (voices):				  0
[2022.09.27-19.51.04:301][841]LogAudioMixer: Display: 	Number of Async Source Workers:		  0
[2022.09.27-19.51.04:301][841]LogAudio: Display: AudioDevice MaxSources: 32
[2022.09.27-19.51.04:301][841]LogAudio: Display: Audio Spatialization Plugin: None (built-in).
[2022.09.27-19.51.04:301][841]LogAudio: Display: Audio Reverb Plugin: None (built-in).
[2022.09.27-19.51.04:301][841]LogAudio: Display: Audio Occlusion Plugin: None (built-in).
[2022.09.27-19.51.04:304][841]LogAudioMixer: Display: Initializing audio mixer using platform API: 'XAudio2'
[2022.09.27-19.51.04:331][841]LogAudioMixer: Display: Using Audio Hardware Device Headphones (High Definition Audio Device)
[2022.09.27-19.51.04:331][841]LogAudioMixer: Display: Initializing Sound Submixes...
[2022.09.27-19.51.04:331][841]LogAudioMixer: Display: Creating Master Submix 'MasterSubmixDefault'
[2022.09.27-19.51.04:331][841]LogAudioMixer: Display: Creating Master Submix 'MasterReverbSubmixDefault'
[2022.09.27-19.51.04:332][841]LogAudioMixer: FMixerPlatformXAudio2::StartAudioStream() called. InstanceID=4
[2022.09.27-19.51.04:332][841]LogAudioMixer: Display: Output buffers initialized: Frames=1024, Channels=2, Samples=2048, InstanceID=4
[2022.09.27-19.51.04:334][841]LogAudioMixer: Display: Starting AudioMixerPlatformInterface::RunInternal(), InstanceID=4
[2022.09.27-19.51.04:334][841]LogAudioMixer: Display: FMixerPlatformXAudio2::SubmitBuffer() called for the first time. InstanceID=4
[2022.09.27-19.51.04:334][841]LogInit: FAudioDevice initialized.
[2022.09.27-19.51.04:334][841]LogAudio: Display: Audio Device (ID: 4) registered with world 'NewMap'.
[2022.09.27-19.51.04:346][841]LogLoad: Game class is 'GameModeBase'
[2022.09.27-19.51.04:347][841]LogWorld: Bringing World /Game/UEDPIE_0_NewMap.NewMap up for play (max tick rate 0) at 2022.09.27-12.51.04
[2022.09.27-19.51.04:347][841]LogWorld: Bringing up level for play took: 0.000958
[2022.09.27-19.51.04:349][841]LogOnline: OSS: Created online subsystem instance for: :Context_3
[2022.09.27-19.51.04:350][841]PIE: Server logged in
[2022.09.27-19.51.04:351][841]PIE: Play in editor total start time 0,069 seconds.
[2022.09.27-19.51.36:825][178]LogSlate: Updating window title bar state: overlay mode, drag disabled, window buttons hidden, title bar hidden
[2022.09.27-19.51.36:826][178]LogWorld: BeginTearingDown for /Game/UEDPIE_0_NewMap
[2022.09.27-19.51.36:826][178]LogWorld: UWorld::CleanupWorld for NewMap, bSessionEnded=true, bCleanupResources=true
[2022.09.27-19.51.36:826][178]LogSlate: InvalidateAllWidgets triggered.  All widgets were invalidated
[2022.09.27-19.51.36:838][178]LogPlayLevel: Display: Shutting down PIE online subsystems
[2022.09.27-19.51.36:840][178]LogSlate: InvalidateAllWidgets triggered.  All widgets were invalidated
[2022.09.27-19.51.36:848][178]LogSlate: Updating window title bar state: overlay mode, drag disabled, window buttons hidden, title bar hidden
[2022.09.27-19.51.36:849][178]LogAudioMixer: FMixerPlatformXAudio2::StopAudioStream() called. InstanceID=4
[2022.09.27-19.51.36:851][178]LogAudioMixer: FMixerPlatformXAudio2::StopAudioStream() called. InstanceID=4
[2022.09.27-19.51.36:857][178]LogUObjectHash: Compacting FUObjectHashTables data took   0.70ms
[2022.09.27-19.51.36:895][180]LogPlayLevel: Display: Destroying online subsystem :Context_3
[2022.09.27-19.51.37:943][223]LogDerivedDataCache: C:/Users/ROG2/AppData/Local/UnrealEngine/Common/DerivedDataCache: Maintenance finished in +00:00:00.179 and deleted 0 file(s) with total size 0 MiB.
[2022.09.27-19.51.40:820][347]LogSlate: Took 0.007486 seconds to synchronously load lazily loaded font '../../../Engine/Content/Editor/Slate/Fonts/FontAwesome.ttf' (139K)
[2022.09.27-19.51.44:638][578]LogEditorClassViewer: Warning: Class /Engine/Tutorial/InWorldBlueprintEditing/TutorialAssets/IWBE_Blutility.IWBE_Blutility_C has parent /Script/Blutility.PlacedEditorUtilityBase, but this parent is not found. The Class will not be shown in ClassViewer.
[2022.09.27-19.51.45:586][578]LogSlate: Window 'Pick Parent Class' being destroyed
[2022.09.27-19.51.45:594][578]LogContentBrowser: Deferred new asset file creation: NewBlueprint1
[2022.09.27-19.51.45:602][578]LogContentBrowser: Creating deferred item: NewBlueprint1
[2022.09.27-19.51.45:617][579]LogContentBrowser: Renaming the item being created (Deferred Item: NewBlueprint1).
[2022.09.27-19.51.46:814][640]LogContentBrowser: Attempting asset rename: NewBlueprint1 -> NewBlueprint1
[2022.09.27-19.51.46:823][640]LogContentBrowser: End creating deferred item NewBlueprint1
[2022.09.27-19.51.47:973][706]LogAssetEditorSubsystem: Opening Asset editor for Blueprint /Game/NewBlueprint1.NewBlueprint1
[2022.09.27-19.51.47:975][706]LogChaos: FPhysicsSolverBase::AsyncDt:-1.000000
